<svg xmlns="http://www.w3.org/2000/svg" width="15.909" height="25" viewBox="0 0 15.909 25">
  <path id="ic_mobile" d="M18.645,1.011,7.273,1A2.27,2.27,0,0,0,5.01,3.273V23.727A2.27,2.27,0,0,0,7.273,26H18.645a2.28,2.28,0,0,0,2.274-2.273V3.273A2.271,2.271,0,0,0,18.645,1.011Zm0,20.443H7.273V5.545H18.645Z" transform="translate(-5.01 -1)" fill="#3f93c1" opacity="0.8"/>
</svg>
