<svg id="Layer_1" data-name="Layer 1" xmlns="http://www.w3.org/2000/svg" width="124" height="91" viewBox="0 0 124 91">
  <path id="Path_7098" data-name="Path 7098" d="M5.9,454.674a11.285,11.285,0,0,1-3.356-.454A6,6,0,0,1,0,452.618l2.45-2.45a4.759,4.759,0,0,0,3.482,1.095q2.23,0,2.23-1.4a1.3,1.3,0,0,0-.3-.919,1.728,1.728,0,0,0-1.028-.415l-1.88-.262a5.4,5.4,0,0,1-3.134-1.37A4.283,4.283,0,0,1,.745,443.77a4.533,4.533,0,0,1,1.541-3.543A6,6,0,0,1,6.43,438.85a7.1,7.1,0,0,1,5.249,1.859l-2.407,2.4a2.738,2.738,0,0,0-1.235-.743,6.965,6.965,0,0,0-1.717-.174,2.055,2.055,0,0,0-1.4.436,1.329,1.329,0,0,0-.481,1.007.981.981,0,0,0,.3.721,1.783,1.783,0,0,0,1.072.454l1.883.268a5.234,5.234,0,0,1,3.061,1.29,4.56,4.56,0,0,1,1.158,3.4,4.31,4.31,0,0,1-1.715,3.6A6.923,6.923,0,0,1,5.9,454.674Z" transform="translate(0 -372.084)" fill="#40484c"/>
  <path id="Path_7099" data-name="Path 7099" d="M80.89,455.238l5.662-15.568h2.931l5.683,15.568H91.4l-.851-2.318H85.635l-.743,2.318Zm5.815-5.511h2.668l-1.334-4.154Z" transform="translate(-68.643 -372.78)" fill="#40484c"/>
  <path id="Path_7100" data-name="Path 7100" d="M181.69,455.238V439.67h3.346l4.985,7.827V439.67h3.827v15.568H190.5l-4.981-7.829v7.829Z" transform="translate(-154.181 -372.78)" fill="#40484c"/>
  <path id="Path_7101" data-name="Path 7101" d="M278.89,455.238V439.67h10.584v3.411h-6.757v2.6h5.773v3.411h-5.773v2.739h6.757v3.406Z" transform="translate(-236.665 -372.78)" fill="#40484c"/>
  <path id="Path_7102" data-name="Path 7102" d="M362.8,455.238V439.67h5.773a5.51,5.51,0,0,1,5.052,2.624,4.518,4.518,0,0,1,.645,1.847,45.947,45.947,0,0,1,0,6.625,4.524,4.524,0,0,1-.645,1.849,5.51,5.51,0,0,1-5.052,2.624Zm3.827-3.406h1.684a2.057,2.057,0,0,0,1.836-.875,2.293,2.293,0,0,0,.329-.984,36.1,36.1,0,0,0,0-5.03,2.3,2.3,0,0,0-.329-.984,2.056,2.056,0,0,0-1.836-.874h-1.684Z" transform="translate(-307.87 -372.78)" fill="#40484c"/>
  <path id="Path_7103" data-name="Path 7103" d="M483.7,454.632a5.863,5.863,0,0,1-4.33-1.706,5.139,5.139,0,0,1-.919-1.225,4.711,4.711,0,0,1-.48-1.552q-.132-.9-.165-1.531t-.032-1.9q0-1.267.032-1.9c.023-.424.077-.933.165-1.531a4.719,4.719,0,0,1,.48-1.553,5.172,5.172,0,0,1,.919-1.225,5.867,5.867,0,0,1,4.33-1.7,5.618,5.618,0,0,1,5.882,5.075h-3.892a1.951,1.951,0,0,0-1.989-1.665,1.8,1.8,0,0,0-1.514.656,2.668,2.668,0,0,0-.454,1.149,25.7,25.7,0,0,0,0,5.4,2.659,2.659,0,0,0,.454,1.148,1.784,1.784,0,0,0,1.514.657,1.957,1.957,0,0,0,1.989-1.665h3.892a5.624,5.624,0,0,1-5.882,5.078Z" transform="translate(-405.433 -372.042)" fill="#40484c"/>
  <path id="Path_7104" data-name="Path 7104" d="M565.15,455.238V439.67h10.583v3.411h-6.757v2.6h5.773v3.411h-5.773v2.739h6.757v3.406Z" transform="translate(-479.584 -372.78)" fill="#40484c"/>
  <path id="Path_7105" data-name="Path 7105" d="M649.06,455.238V439.67h6.166a5.153,5.153,0,0,1,3.892,1.475,4.919,4.919,0,0,1,1.42,3.532,4.184,4.184,0,0,1-.739,2.5,4.877,4.877,0,0,1-1.793,1.562l3.367,6.495h-4.444l-2.757-5.794h-1.288v5.794Zm3.826-9.008h2.165a1.61,1.61,0,0,0,1.211-.469,1.559,1.559,0,0,0,0-2.209,1.611,1.611,0,0,0-1.211-.469h-2.165Z" transform="translate(-550.789 -372.78)" fill="#40484c"/>
  <path id="Path_7106" data-name="Path 7106" d="M734.2,455.238V443.081H730.37V439.67h11.48v3.411h-3.827v12.157Z" transform="translate(-619.789 -372.78)" fill="#40484c"/>
  <path id="Path_7107" data-name="Path 7107" d="M5.21,570.872l.17-.787a2.572,2.572,0,0,0,.964.2c.322,0,.484-.1.484-.3a.292.292,0,0,0-.126-.26,2.323,2.323,0,0,0-.488-.213,1.937,1.937,0,0,1-.745-.428.957.957,0,0,1-.256-.706,1.037,1.037,0,0,1,.341-.828,1.464,1.464,0,0,1,.986-.3,2.42,2.42,0,0,1,1.049.209l-.182.777a2.107,2.107,0,0,0-.815-.17c-.285,0-.425.092-.425.277a.277.277,0,0,0,.1.233,1.686,1.686,0,0,0,.407.192,3.364,3.364,0,0,1,.445.186,1.866,1.866,0,0,1,.338.226.832.832,0,0,1,.242.333,1.247,1.247,0,0,1,.077.454,1,1,0,0,1-.375.828,1.578,1.578,0,0,1-1.019.3A2.776,2.776,0,0,1,5.21,570.872Z" transform="translate(-4.421 -481.04)" fill="#aecd54"/>
  <path id="Path_7108" data-name="Path 7108" d="M25.782,571.367l-.171-.687H24.4l-.171.687H23.26q.254-.986.6-2.021a14.714,14.714,0,0,1,.66-1.706h.975a15.925,15.925,0,0,1,.669,1.72q.345,1.04.6,2.014Zm-.777-2.725a8.705,8.705,0,0,0-.4,1.234h.8a9.431,9.431,0,0,0-.4-1.229Z" transform="translate(-19.738 -481.376)" fill="#aecd54"/>
  <path id="Path_7109" data-name="Path 7109" d="M49.683,571.308H48.82v-3.727h.908a19.366,19.366,0,0,0,1.406,2.412,3.966,3.966,0,0,1-.021-.454V567.57h.863V571.3h-.914c-.206-.285-.362-.5-.466-.648s-.248-.36-.428-.641-.35-.565-.506-.852c.014.151.021.363.021.654Z" transform="translate(-41.429 -481.316)" fill="#aecd54"/>
  <path id="Path_7110" data-name="Path 7110" d="M76.3,570.571v.8H73.9V567.64h2.4v.8H74.842v.65h1.235v.8H74.842v.684Z" transform="translate(-62.712 -481.376)" fill="#aecd54"/>
  <path id="Path_7111" data-name="Path 7111" d="M93.24,571.358V567.63h1.341a1.877,1.877,0,0,1,1.353.5,1.788,1.788,0,0,1,.516,1.352,1.832,1.832,0,0,1-.516,1.376,1.858,1.858,0,0,1-1.353.5Zm1.316-2.93h-.372v2.133h.372a.867.867,0,0,0,.695-.263,1.237,1.237,0,0,0,.226-.817,1.179,1.179,0,0,0-.226-.793A.885.885,0,0,0,94.556,568.428Z" transform="translate(-79.124 -481.366)" fill="#aecd54"/>
  <path id="Path_7112" data-name="Path 7112" d="M126.722,571.367h-.942V567.64h2.342v.8h-1.4v.816H127.9v.8h-1.182Z" transform="translate(-106.737 -481.376)" fill="#aecd54"/>
  <path id="Path_7113" data-name="Path 7113" d="M145.633,575.154a1.452,1.452,0,0,1-.372,1.046,1.492,1.492,0,0,1-2.015,0,1.637,1.637,0,0,1,0-2.086,1.491,1.491,0,0,1,2.015,0A1.444,1.444,0,0,1,145.633,575.154Zm-1.72-.506a.894.894,0,0,0-.123.506.908.908,0,0,0,.123.509.405.405,0,0,0,.68,0,.936.936,0,0,0,.12-.509.894.894,0,0,0-.123-.506.386.386,0,0,0-.336-.18A.39.39,0,0,0,143.913,574.648Z" transform="translate(-121.24 -486.537)" fill="#aecd54"/>
  <path id="Path_7114" data-name="Path 7114" d="M164.093,573.93a2.657,2.657,0,0,1,1.119-.218,1.9,1.9,0,0,1,.565.064l-.129.736a1.014,1.014,0,0,0-.356-.053.806.806,0,0,0-.294.047v2.014h-.908Z" transform="translate(-139.246 -486.528)" fill="#aecd54"/>
  <path id="Path_7115" data-name="Path 7115" d="M186.785,571.066a1.688,1.688,0,0,1-1.316-.516,2,2,0,0,1-.469-1.4,2.027,2.027,0,0,1,.477-1.419,1.754,1.754,0,0,1,1.363-.525,2.3,2.3,0,0,1,.895.192l-.209.8a2.16,2.16,0,0,0-.675-.16.776.776,0,0,0-.663.277,1.742,1.742,0,0,0,0,1.649.766.766,0,0,0,.648.268,1.6,1.6,0,0,0,.757-.212l.18.809a2.009,2.009,0,0,1-.987.235Z" transform="translate(-156.99 -481.011)" fill="#aecd54"/>
  <path id="Path_7116" data-name="Path 7116" d="M207.127,576.4a2.27,2.27,0,0,1-.948.182,1.465,1.465,0,0,1-1.06-.394,1.391,1.391,0,0,1-.407-1.045,1.433,1.433,0,0,1,.38-1.037,1.305,1.305,0,0,1,.983-.4,1.144,1.144,0,0,1,.855.341,1.229,1.229,0,0,1,.333.895c0,.151-.008.3-.021.442h-1.579a.553.553,0,0,0,.606.438,1.947,1.947,0,0,0,.709-.151Zm-1.06-1.968c-.233,0-.375.142-.425.425h.757v-.044a.406.406,0,0,0-.091-.282.3.3,0,0,0-.236-.1Z" transform="translate(-173.717 -486.531)" fill="#aecd54"/>
  <path id="Path_7117" data-name="Path 7117" d="M224.515,573.93a2.645,2.645,0,0,1,1.117-.218,1.891,1.891,0,0,1,.565.064l-.127.736a1.022,1.022,0,0,0-.357-.053.812.812,0,0,0-.294.047v2.014h-.908Z" transform="translate(-190.518 -486.528)" fill="#aecd54"/>
  <path id="Path_7118" data-name="Path 7118" d="M238.235,573.476a2.536,2.536,0,0,1-.5.042q-1.04,0-1.039-1.145v-.943h-.347v-.719h.347v-.569l.908-.042v.606h.527v.719h-.527v.933c0,.273.108.41.324.41a1.421,1.421,0,0,0,.262-.021Z" transform="translate(-200.566 -483.463)" fill="#aecd54"/>
  <path id="Path_7119" data-name="Path 7119" d="M251.761,566.821a.592.592,0,0,1-.748,0,.474.474,0,0,1-.136-.357.465.465,0,0,1,.136-.353.6.6,0,0,1,.748,0,.474.474,0,0,1,.133.353A.485.485,0,0,1,251.761,566.821Zm.08.394v2.743h-.908v-2.743Z" transform="translate(-212.892 -479.967)" fill="#aecd54"/>
  <path id="Path_7120" data-name="Path 7120" d="M260.065,570.372v-2.024h-.345v-.719h.345v-.021a1.211,1.211,0,0,1,.274-.836.984.984,0,0,1,.775-.3,2.811,2.811,0,0,1,.6.068l-.138.7a1.487,1.487,0,0,0-.277-.027c-.217,0-.326.126-.326.378v.036h.575v.719h-.572v2.024Z" transform="translate(-220.397 -480.38)" fill="#aecd54"/>
  <path id="Path_7121" data-name="Path 7121" d="M275.291,566.821a.592.592,0,0,1-.748,0,.474.474,0,0,1-.136-.357.465.465,0,0,1,.136-.353.6.6,0,0,1,.748,0,.474.474,0,0,1,.133.353A.485.485,0,0,1,275.291,566.821Zm.08.394v2.743h-.908v-2.743Z" transform="translate(-232.86 -479.967)" fill="#aecd54"/>
  <path id="Path_7122" data-name="Path 7122" d="M285.135,573.71a1.954,1.954,0,0,1,.821.165l-.165.708a1.5,1.5,0,0,0-.575-.127.485.485,0,0,0-.4.176.757.757,0,0,0-.144.489q0,.716.575.715a1.393,1.393,0,0,0,.565-.129l.138.725a1.819,1.819,0,0,1-.783.151,1.378,1.378,0,0,1-1.04-.389,1.436,1.436,0,0,1-.377-1.043,1.458,1.458,0,0,1,.371-1.046A1.324,1.324,0,0,1,285.135,573.71Z" transform="translate(-240.787 -486.525)" fill="#aecd54"/>
  <path id="Path_7123" data-name="Path 7123" d="M302.416,576.4a2.9,2.9,0,0,1-1.219.224,1.3,1.3,0,0,1-.845-.239.77.77,0,0,1-.294-.624.746.746,0,0,1,.294-.606,1.224,1.224,0,0,1,.787-.235,2.525,2.525,0,0,1,.4.027V574.9c0-.265-.151-.4-.463-.4a1.9,1.9,0,0,0-.7.123l-.151-.7a2.652,2.652,0,0,1,.964-.165,1.258,1.258,0,0,1,.924.315,1.211,1.211,0,0,1,.312.889Zm-1.123-.415a.642.642,0,0,0,.245-.038v-.454a1.247,1.247,0,0,0-.266-.032.37.37,0,0,0-.227.067.234.234,0,0,0-.088.2C300.958,575.9,301.069,575.984,301.293,575.984Z" transform="translate(-254.628 -486.567)" fill="#aecd54"/>
  <path id="Path_7124" data-name="Path 7124" d="M319.625,573.476a2.564,2.564,0,0,1-.5.042q-1.039,0-1.037-1.145v-.943h-.347v-.719h.342v-.569l.908-.042v.606h.527v.719h-.527v.933c0,.273.108.41.324.41a1.421,1.421,0,0,0,.262-.021Z" transform="translate(-269.633 -483.463)" fill="#aecd54"/>
  <path id="Path_7125" data-name="Path 7125" d="M333.149,566.816a.5.5,0,0,1-.372.133.513.513,0,0,1-.375-.133.48.48,0,0,1-.135-.357.47.47,0,0,1,.135-.353.517.517,0,0,1,.375-.132.5.5,0,0,1,.372.132.467.467,0,0,1,.133.353A.478.478,0,0,1,333.149,566.816Zm.08.394v2.743h-.908V567.21Z" transform="translate(-281.96 -479.961)" fill="#aecd54"/>
  <path id="Path_7126" data-name="Path 7126" d="M344.384,575.153a1.452,1.452,0,0,1-.372,1.046,1.493,1.493,0,0,1-2.017,0,1.636,1.636,0,0,1,0-2.086,1.493,1.493,0,0,1,2.017,0A1.444,1.444,0,0,1,344.384,575.153Zm-1.72-.506a.9.9,0,0,0-.123.506.908.908,0,0,0,.123.509.388.388,0,0,0,.341.185.382.382,0,0,0,.338-.185.923.923,0,0,0,.12-.509.9.9,0,0,0-.123-.506.385.385,0,0,0-.335-.18A.391.391,0,0,0,342.664,574.647Z" transform="translate(-289.897 -486.536)" fill="#aecd54"/>
  <path id="Path_7127" data-name="Path 7127" d="M363.758,576.511h-.908v-2.589a3.388,3.388,0,0,1,1.24-.218,1.418,1.418,0,0,1,.958.3,1.073,1.073,0,0,1,.341.855v1.656h-.908v-1.593q0-.468-.4-.468a.929.929,0,0,0-.324.053Z" transform="translate(-307.913 -486.52)" fill="#aecd54"/>
  <path id="Path_7128" data-name="Path 7128" d="M390.65,570.837l.171-.793a2.564,2.564,0,0,0,.963.2c.324,0,.484-.1.484-.3a.29.29,0,0,0-.124-.26,2.362,2.362,0,0,0-.488-.214,1.943,1.943,0,0,1-.746-.428.963.963,0,0,1-.254-.706,1.037,1.037,0,0,1,.341-.828,1.462,1.462,0,0,1,.984-.3,2.41,2.41,0,0,1,1.049.209l-.18.777a2.121,2.121,0,0,0-.815-.17q-.427,0-.427.277a.274.274,0,0,0,.1.233,1.623,1.623,0,0,0,.407.192,3.42,3.42,0,0,1,.444.186,1.875,1.875,0,0,1,.339.229.844.844,0,0,1,.242.333,1.251,1.251,0,0,1,.077.454,1,1,0,0,1-.375.828,1.582,1.582,0,0,1-1.021.3A2.784,2.784,0,0,1,390.65,570.837Z" transform="translate(-331.504 -481.006)" fill="#aecd54"/>
  <path id="Path_7129" data-name="Path 7129" d="M411.827,576.4a2.27,2.27,0,0,1-.948.182,1.466,1.466,0,0,1-1.06-.394,1.386,1.386,0,0,1-.407-1.045,1.433,1.433,0,0,1,.38-1.037,1.305,1.305,0,0,1,.983-.4,1.144,1.144,0,0,1,.855.341,1.229,1.229,0,0,1,.333.895,4.172,4.172,0,0,1-.023.442h-1.573a.552.552,0,0,0,.606.438,1.953,1.953,0,0,0,.708-.151Zm-1.06-1.968c-.235,0-.375.142-.425.425h.757v-.044a.406.406,0,0,0-.091-.282.3.3,0,0,0-.236-.1Z" transform="translate(-347.424 -486.531)" fill="#aecd54"/>
  <path id="Path_7130" data-name="Path 7130" d="M429.213,573.93a2.657,2.657,0,0,1,1.119-.218,1.9,1.9,0,0,1,.565.064l-.129.736a1.008,1.008,0,0,0-.356-.053.812.812,0,0,0-.294.047v2.014h-.908Z" transform="translate(-364.226 -486.528)" fill="#aecd54"/>
  <path id="Path_7131" data-name="Path 7131" d="M441.4,574.14h.916a4.955,4.955,0,0,0,.442,2.024,4.769,4.769,0,0,0,.442-2.024h.908a6.841,6.841,0,0,1-.248,1.425,6.6,6.6,0,0,1-.606,1.319h-1.007a6.366,6.366,0,0,1-.631-1.332A5.624,5.624,0,0,1,441.4,574.14Z" transform="translate(-374.57 -486.892)" fill="#aecd54"/>
  <path id="Path_7132" data-name="Path 7132" d="M462.441,566.817a.5.5,0,0,1-.374.133.513.513,0,0,1-.376-.133.481.481,0,0,1-.135-.357.469.469,0,0,1,.135-.353.518.518,0,0,1,.376-.132.51.51,0,0,1,.374.132.474.474,0,0,1,.133.353A.485.485,0,0,1,462.441,566.817Zm.079.393v2.743h-.908V567.21Z" transform="translate(-391.675 -479.962)" fill="#aecd54"/>
  <path id="Path_7133" data-name="Path 7133" d="M472.285,573.708a1.942,1.942,0,0,1,.819.165l-.165.708a1.488,1.488,0,0,0-.575-.127.483.483,0,0,0-.4.176.745.745,0,0,0-.144.483c0,.477.191.715.575.715a1.387,1.387,0,0,0,.563-.129l.139.725a1.819,1.819,0,0,1-.783.151,1.382,1.382,0,0,1-1.042-.389,1.439,1.439,0,0,1-.376-1.043,1.458,1.458,0,0,1,.371-1.046A1.325,1.325,0,0,1,472.285,573.708Z" transform="translate(-399.602 -486.523)" fill="#aecd54"/>
  <path id="Path_7134" data-name="Path 7134" d="M489.307,576.4a2.27,2.27,0,0,1-.948.182,1.471,1.471,0,0,1-1.06-.394,1.392,1.392,0,0,1-.407-1.045,1.428,1.428,0,0,1,.382-1.037,1.3,1.3,0,0,1,.983-.4,1.145,1.145,0,0,1,.854.341,1.223,1.223,0,0,1,.333.895c0,.151-.008.3-.021.442h-1.575a.556.556,0,0,0,.613.438,1.94,1.94,0,0,0,.707-.151Zm-1.06-1.968q-.352,0-.427.425h.757v-.044a.406.406,0,0,0-.091-.282.3.3,0,0,0-.233-.1Z" transform="translate(-413.173 -486.53)" fill="#aecd54"/>
  <path id="Path_7135" data-name="Path 7135" d="M506.347,569.031q-.115-1.108-.117-1.422h.842a3.655,3.655,0,0,1-.02.454c-.02.161-.03.339-.053.53s-.038.338-.045.438Z" transform="translate(-429.585 -481.35)" fill="#aecd54"/>
  <path id="Path_7136" data-name="Path 7136" d="M516.065,573.881l-.091.736a2.9,2.9,0,0,0-.772-.152c-.185,0-.277.038-.277.117a.115.115,0,0,0,.07.106,1.629,1.629,0,0,0,.3.1,1.621,1.621,0,0,1,.7.326.748.748,0,0,1,.207.569.777.777,0,0,1-.323.674,1.444,1.444,0,0,1-.86.232,2.492,2.492,0,0,1-1-.186l.118-.736a2.254,2.254,0,0,0,.861.177c.21,0,.315-.047.315-.139a.135.135,0,0,0-.088-.13,3.165,3.165,0,0,0-.418-.13,1.212,1.212,0,0,1-.591-.3.758.758,0,0,1-.192-.541.794.794,0,0,1,.288-.653,1.244,1.244,0,0,1,.8-.231A2.617,2.617,0,0,1,516.065,573.881Z" transform="translate(-436.204 -486.532)" fill="#aecd54"/>
  <path id="Path_7137" data-name="Path 7137" d="M538.394,568.438h-.921v2.929h-.943v-2.929h-.92v-.8h2.784Z" transform="translate(-454.516 -481.376)" fill="#aecd54"/>
  <path id="Path_7138" data-name="Path 7138" d="M555.677,576.4a2.27,2.27,0,0,1-.948.182,1.465,1.465,0,0,1-1.06-.394,1.391,1.391,0,0,1-.407-1.045,1.432,1.432,0,0,1,.38-1.037,1.305,1.305,0,0,1,.983-.4,1.145,1.145,0,0,1,.852.345,1.23,1.23,0,0,1,.333.895c0,.152-.008.3-.021.442h-1.571a.553.553,0,0,0,.606.438,1.943,1.943,0,0,0,.709-.151Zm-1.06-1.968c-.233,0-.375.142-.425.425h.757v-.044a.407.407,0,0,0-.091-.282.3.3,0,0,0-.236-.1Z" transform="translate(-469.495 -486.531)" fill="#aecd54"/>
  <path id="Path_7139" data-name="Path 7139" d="M573.541,573.708a1.95,1.95,0,0,1,.821.165l-.165.708a1.493,1.493,0,0,0-.575-.127.484.484,0,0,0-.4.176.757.757,0,0,0-.151.489q0,.716.575.715a1.4,1.4,0,0,0,.565-.129l.138.725a1.816,1.816,0,0,1-.783.151,1.378,1.378,0,0,1-1.04-.389,1.434,1.434,0,0,1-.376-1.043,1.457,1.457,0,0,1,.369-1.046A1.324,1.324,0,0,1,573.541,573.708Z" transform="translate(-485.522 -486.523)" fill="#aecd54"/>
  <path id="Path_7140" data-name="Path 7140" d="M590.468,570.587h-.909v-3.824l.909-.042v1.123a1.283,1.283,0,0,1,.442-.064,1.24,1.24,0,0,1,.866.3,1.1,1.1,0,0,1,.327.852v1.656H591.2V569q0-.468-.442-.468a.759.759,0,0,0-.288.053Z" transform="translate(-500.298 -480.595)" fill="#aecd54"/>
  <path id="Path_7141" data-name="Path 7141" d="M610.908,576.511H610v-2.589a3.389,3.389,0,0,1,1.242-.218,1.418,1.418,0,0,1,.958.3,1.073,1.073,0,0,1,.341.855v1.656h-.908v-1.593q0-.468-.4-.468a.94.94,0,0,0-.32.053Z" transform="translate(-517.643 -486.52)" fill="#aecd54"/>
  <path id="Path_7142" data-name="Path 7142" d="M631.041,566.816a.5.5,0,0,1-.372.133.513.513,0,0,1-.376-.133.475.475,0,0,1-.136-.357.466.466,0,0,1,.136-.353.517.517,0,0,1,.376-.132.5.5,0,0,1,.372.132.469.469,0,0,1,.133.353A.479.479,0,0,1,631.041,566.816Zm.08.394v2.743h-.908V567.21Z" transform="translate(-534.748 -479.961)" fill="#aecd54"/>
  <path id="Path_7143" data-name="Path 7143" d="M640.9,573.712a1.95,1.95,0,0,1,.821.165l-.159.708a1.491,1.491,0,0,0-.575-.127.488.488,0,0,0-.4.176.757.757,0,0,0-.144.489q0,.716.575.715a1.39,1.39,0,0,0,.565-.129l.139.725a1.816,1.816,0,0,1-.783.151,1.378,1.378,0,0,1-1.042-.389,1.439,1.439,0,0,1-.375-1.043,1.456,1.456,0,0,1,.369-1.046A1.327,1.327,0,0,1,640.9,573.712Z" transform="translate(-542.692 -486.527)" fill="#aecd54"/>
  <path id="Path_7144" data-name="Path 7144" d="M658.163,576.4a2.905,2.905,0,0,1-1.22.224,1.3,1.3,0,0,1-.842-.239.769.769,0,0,1-.292-.624.744.744,0,0,1,.292-.606,1.229,1.229,0,0,1,.789-.235,2.514,2.514,0,0,1,.394.027V574.9c0-.265-.151-.4-.463-.4a1.9,1.9,0,0,0-.7.123l-.151-.7a2.641,2.641,0,0,1,.964-.165,1.244,1.244,0,0,1,.924.315,1.211,1.211,0,0,1,.312.889Zm-1.125-.415a.642.642,0,0,0,.245-.038v-.454a1.232,1.232,0,0,0-.267-.032.366.366,0,0,0-.225.067.228.228,0,0,0-.088.2C656.7,575.9,656.815,575.983,657.038,575.983Z" transform="translate(-556.515 -486.567)" fill="#aecd54"/>
  <path id="Path_7145" data-name="Path 7145" d="M675.775,566.72V569.5c0,.272.085.41.256.41a.856.856,0,0,0,.159-.017l.065.713a2.079,2.079,0,0,1-.442.048q-.943,0-.943-1.144v-2.725Z" transform="translate(-572.691 -480.595)" fill="#aecd54"/>
  <path id="Path_7146" data-name="Path 7146" d="M693.62,570.837l.169-.793a2.574,2.574,0,0,0,.964.2c.323,0,.484-.1.484-.3a.289.289,0,0,0-.126-.26,2.333,2.333,0,0,0-.486-.214,1.943,1.943,0,0,1-.746-.428.963.963,0,0,1-.256-.706,1.032,1.032,0,0,1,.342-.828,1.46,1.46,0,0,1,.984-.3,2.409,2.409,0,0,1,1.049.209l-.182.777a2.108,2.108,0,0,0-.814-.17c-.283,0-.425.093-.425.277a.274.274,0,0,0,.1.233,1.623,1.623,0,0,0,.407.192,3.422,3.422,0,0,1,.444.186,1.936,1.936,0,0,1,.339.232.846.846,0,0,1,.242.333,1.248,1.248,0,0,1,.077.454,1,1,0,0,1-.375.828,1.585,1.585,0,0,1-1.02.3A2.78,2.78,0,0,1,693.62,570.837Z" transform="translate(-588.602 -481.006)" fill="#aecd54"/>
  <path id="Path_7147" data-name="Path 7147" d="M715.589,576.729a3.719,3.719,0,0,1-1.246.218,1.091,1.091,0,0,1-1.288-1.225V574.14h.908v1.582c0,.32.136.48.41.48a.878.878,0,0,0,.313-.055V574.14h.909Z" transform="translate(-605.092 -486.892)" fill="#aecd54"/>
  <path id="Path_7148" data-name="Path 7148" d="M734.807,573.711a1.493,1.493,0,0,1,1.06.376,1.362,1.362,0,0,1,.4,1.03,1.474,1.474,0,0,1-.372,1.06,1.455,1.455,0,0,1-1.347.354v.99h-.908v-3.591A3.111,3.111,0,0,1,734.807,573.711Zm-.256.772V575.8a.733.733,0,0,0,.229.038.529.529,0,0,0,.434-.168.827.827,0,0,0,.135-.519q0-.694-.6-.692A1.391,1.391,0,0,0,734.551,574.484Z" transform="translate(-622.563 -486.526)" fill="#aecd54"/>
  <path id="Path_7149" data-name="Path 7149" d="M755.153,573.709a1.5,1.5,0,0,1,1.069.375,1.363,1.363,0,0,1,.4,1.036,1.475,1.475,0,0,1-.372,1.06,1.455,1.455,0,0,1-1.348.354v.99h-.908v-3.6A3.107,3.107,0,0,1,755.153,573.709Zm-.254.772V575.8a.73.73,0,0,0,.229.038.528.528,0,0,0,.435-.168.826.826,0,0,0,.135-.519q0-.694-.6-.692a1.424,1.424,0,0,0-.2.026Z" transform="translate(-639.832 -486.524)" fill="#aecd54"/>
  <path id="Path_7150" data-name="Path 7150" d="M776.223,575.154a1.452,1.452,0,0,1-.372,1.046,1.492,1.492,0,0,1-2.015,0,1.637,1.637,0,0,1,0-2.086,1.491,1.491,0,0,1,2.015,0A1.444,1.444,0,0,1,776.223,575.154Zm-1.72-.506a.894.894,0,0,0-.122.506.908.908,0,0,0,.122.509.405.405,0,0,0,.68,0,.935.935,0,0,0,.119-.509.893.893,0,0,0-.123-.506.386.386,0,0,0-.336-.18A.391.391,0,0,0,774.5,574.648Z" transform="translate(-656.354 -486.537)" fill="#aecd54"/>
  <path id="Path_7151" data-name="Path 7151" d="M794.7,573.93a2.657,2.657,0,0,1,1.119-.218,1.9,1.9,0,0,1,.565.064l-.124.736a1.013,1.013,0,0,0-.356-.053.807.807,0,0,0-.294.047v2.014H794.7Z" transform="translate(-674.379 -486.528)" fill="#aecd54"/>
  <path id="Path_7152" data-name="Path 7152" d="M808.435,573.476a2.564,2.564,0,0,1-.5.042q-1.037,0-1.039-1.145v-.943h-.345v-.719h.345v-.569l.908-.042v.606h.528v.719H807.8v.933c0,.273.109.41.326.41a1.4,1.4,0,0,0,.26-.021Z" transform="translate(-684.435 -483.463)" fill="#aecd54"/>
  <path id="Path_7153" data-name="Path 7153" d="M260.678,253.17l-7.862,9.956a1.817,1.817,0,0,0,.3,2.551l3.891,3.073a1.817,1.817,0,0,0,2.553-.3L267,259.029a24.8,24.8,0,0,1-6.322-5.859Z" transform="translate(-214.208 -214.674)" fill="#006fad"/>
  <path id="Path_7154" data-name="Path 7154" d="M308.029,39.231a16.33,16.33,0,1,1,11.742-28.34,1.514,1.514,0,0,0,2.044,0l2.627-2.412a1.514,1.514,0,0,0,.009-2.223A23.016,23.016,0,0,0,303.643.534a22.372,22.372,0,0,0-16.769,15.343A22.932,22.932,0,0,0,323.332,40.56a1.514,1.514,0,0,0,.151-2.2l-2.415-2.618A1.514,1.514,0,0,0,319,35.593,16.266,16.266,0,0,1,308.029,39.231Z" transform="translate(-242.533 -0.001)" fill="#006fad"/>
  <path id="Path_7155" data-name="Path 7155" d="M376.12,83.067c0-1.95,1-4.44,1.328-4.44.207,0,1.244,6.266,7.138,6.266,1.7,0,3.693-.871,3.693-2.987,0-4.275-11.2-3.155-11.2-11.412,0-5.064,4.067-7.8,8.549-7.8,5.187,0,8.051,3.113,8.051,3.936,0,.789-2.324,4.151-3.279,4.151-1.078,0-1.328-3.2-5.147-3.2-1.287,0-3.028.581-3.028,1.826,0,4.274,12.112,4.191,12.112,12.616,0,5.394-4.481,8.466-9.462,8.466C380.477,90.5,376.12,87.922,376.12,83.067Z" transform="translate(-319.173 -53.199)" fill="#aecd54"/>
</svg>
