<svg id="Group_39" data-name="Group 39" xmlns="http://www.w3.org/2000/svg" xmlns:xlink="http://www.w3.org/1999/xlink" width="445" height="276" viewBox="0 0 445 276">
  <defs>
    <linearGradient id="linear-gradient" x1="0.5" y1="0.552" x2="0.5" y2="1.483" gradientUnits="objectBoundingBox">
      <stop offset="0" stop-color="#ff928e"/>
      <stop offset="1" stop-color="#feb3b1"/>
    </linearGradient>
    <linearGradient id="linear-gradient-2" x1="85.408" y1="-21.203" x2="85.608" y2="-19.417" gradientUnits="objectBoundingBox">
      <stop offset="0" stop-color="#09005d"/>
      <stop offset="1" stop-color="#1a0f91"/>
    </linearGradient>
    <linearGradient id="linear-gradient-3" x1="-0.248" y1="1.05" x2="0.871" y2="0.246" xlink:href="#linear-gradient"/>
    <linearGradient id="linear-gradient-4" x1="66.633" y1="-57.153" x2="66.788" y2="-52.44" xlink:href="#linear-gradient-2"/>
    <linearGradient id="linear-gradient-5" x1="0.435" y1="-0.163" x2="0.84" y2="3.931" xlink:href="#linear-gradient"/>
    <linearGradient id="linear-gradient-6" x1="0.957" y1="-0.133" x2="0.171" y2="1.162" xlink:href="#linear-gradient"/>
    <linearGradient id="linear-gradient-7" x1="1.812" y1="-1.454" x2="-1.047" y2="2.716" xlink:href="#linear-gradient"/>
    <linearGradient id="linear-gradient-8" x1="32.383" y1="0.5" x2="33.383" y2="0.5" xlink:href="#linear-gradient"/>
    <linearGradient id="linear-gradient-9" x1="-1.896" y1="-0.484" x2="-4.731" y2="6.012" xlink:href="#linear-gradient-2"/>
    <linearGradient id="linear-gradient-10" x1="-14.074" y1="0.5" x2="-13.074" y2="0.5" xlink:href="#linear-gradient"/>
    <linearGradient id="linear-gradient-11" x1="-2.903" y1="0.031" x2="-5.8" y2="0.887" xlink:href="#linear-gradient-2"/>
    <linearGradient id="linear-gradient-12" x1="-10.069" y1="-2.223" x2="-17.086" y2="5.384" xlink:href="#linear-gradient-2"/>
    <linearGradient id="linear-gradient-13" x1="-24.808" y1="0.5" x2="-23.808" y2="0.5" xlink:href="#linear-gradient"/>
    <linearGradient id="linear-gradient-14" x1="-2.574" y1="-0.035" x2="-4.615" y2="0.806" xlink:href="#linear-gradient-2"/>
    <linearGradient id="linear-gradient-15" x1="0.168" y1="-0.172" x2="0.699" y2="0.725" xlink:href="#linear-gradient"/>
    <linearGradient id="linear-gradient-16" x1="0.629" y1="0.673" x2="2.212" y2="2.519" xlink:href="#linear-gradient"/>
    <linearGradient id="linear-gradient-17" x1="2.142" y1="1.504" x2="0.057" y2="0.355" xlink:href="#linear-gradient"/>
    <linearGradient id="linear-gradient-18" x1="-3.517" y1="0.5" x2="-2.517" y2="0.5" xlink:href="#linear-gradient"/>
    <linearGradient id="linear-gradient-19" x1="-5.921" y1="-3.497" x2="-6.494" y2="1.805" xlink:href="#linear-gradient-2"/>
    <linearGradient id="linear-gradient-20" x1="-3.055" y1="-1.235" x2="-3.199" y2="1.146" xlink:href="#linear-gradient-2"/>
    <linearGradient id="linear-gradient-21" x1="-7.556" y1="0.5" x2="-6.556" y2="0.5" xlink:href="#linear-gradient"/>
    <linearGradient id="linear-gradient-22" x1="0.588" y1="0.065" x2="0.13" y2="2.047" xlink:href="#linear-gradient"/>
    <linearGradient id="linear-gradient-23" x1="1.796" y1="-0.576" x2="-0.1" y2="0.913" xlink:href="#linear-gradient"/>
    <linearGradient id="linear-gradient-24" x1="4.406" y1="-3.969" x2="-1.773" y2="3.251" xlink:href="#linear-gradient"/>
    <linearGradient id="linear-gradient-25" y1="0.5" x2="1" y2="0.5" gradientUnits="objectBoundingBox">
      <stop offset="0" stop-color="#dae3fe"/>
      <stop offset="1" stop-color="#e9effd"/>
    </linearGradient>
    <linearGradient id="linear-gradient-26" x1="0" y1="0.5" x2="1" y2="0.5" xlink:href="#linear-gradient-25"/>
    <linearGradient id="linear-gradient-47" x1="0" y1="0.5" x2="1" y2="0.5" xlink:href="#linear-gradient-25"/>
    <linearGradient id="linear-gradient-95" x1="0" y1="0.5" x2="1" y2="0.5" xlink:href="#linear-gradient-25"/>
    <linearGradient id="linear-gradient-98" x1="0" y1="0.5" x2="1" y2="0.5" xlink:href="#linear-gradient-25"/>
    <linearGradient id="linear-gradient-170" x1="143.384" y1="0.5" x2="144.384" y2="0.5" xlink:href="#linear-gradient-2"/>
    <linearGradient id="linear-gradient-171" x1="93.766" y1="-4.126" x2="91.316" y2="1.102" gradientUnits="objectBoundingBox">
      <stop offset="0" stop-color="#4042e2"/>
      <stop offset="1" stop-color="#4f52ff"/>
    </linearGradient>
    <linearGradient id="linear-gradient-172" x1="374.928" y1="-2.1" x2="369.961" y2="5.431" gradientUnits="objectBoundingBox">
      <stop offset="0" stop-color="#fe7062"/>
      <stop offset="1" stop-color="#ff928e"/>
    </linearGradient>
    <linearGradient id="linear-gradient-173" x1="646.214" y1="-8.413" x2="641.707" y2="0.996" xlink:href="#linear-gradient-2"/>
    <linearGradient id="linear-gradient-174" x1="107.515" y1="0.5" x2="108.515" y2="0.5" xlink:href="#linear-gradient"/>
    <linearGradient id="linear-gradient-175" x1="380.885" y1="-0.843" x2="380.378" y2="2.39" xlink:href="#linear-gradient"/>
    <linearGradient id="linear-gradient-176" x1="99.607" y1="0.5" x2="100.607" y2="0.5" xlink:href="#linear-gradient-2"/>
    <linearGradient id="linear-gradient-177" x1="386.951" y1="-0.223" x2="386.437" y2="2.539" xlink:href="#linear-gradient"/>
    <linearGradient id="linear-gradient-178" x1="190.619" y1="-0.138" x2="188.866" y2="1.017" xlink:href="#linear-gradient"/>
    <linearGradient id="linear-gradient-179" x1="214.645" y1="0.257" x2="212.661" y2="2.087" xlink:href="#linear-gradient"/>
    <linearGradient id="linear-gradient-180" x1="161.564" y1="-0.222" x2="160.746" y2="2.966" xlink:href="#linear-gradient"/>
    <linearGradient id="linear-gradient-181" x1="47.4" y1="50.149" x2="46.328" y2="51.431" xlink:href="#linear-gradient"/>
    <linearGradient id="linear-gradient-182" x1="33.166" y1="33.625" x2="34.073" y2="33.625" xlink:href="#linear-gradient-2"/>
    <linearGradient id="linear-gradient-183" x1="131.12" y1="167.769" x2="133.578" y2="165.12" xlink:href="#linear-gradient"/>
    <linearGradient id="linear-gradient-184" x1="0.477" y1="0.845" x2="0.703" y2="-2.61" xlink:href="#linear-gradient-2"/>
  </defs>
  <path id="Path_1" data-name="Path 1" d="M545.892,297.528c-3.48-17.6,10.6-33.16,17.943-49.526,13.156-29.328,3.256-66.149-20.316-88s-58.433-29.3-89.988-23.167c-48.932,9.515-91.959,48.548-141.544,43.429-21.75-2.245-41.555-12.921-61.768-21.259s-43.04-14.464-63.712-7.336c-20.391,7.031-35.042,26.493-39.6,47.574s-.015,43.373,9.165,62.89c4.83,10.269,10.719,23.159,3.491,31.908-5.212,6.308-14.656,6.674-21.8,10.663-11.434,6.384-15.366,21.851-11.77,34.442s13.077,22.646,23.265,30.872A159.064,159.064,0,0,0,270.4,403.227l-2.383-4.449c44.478-3.322,88.8,5.978,133.2,10.158s91.633,2.6,130.006-20.127c10.3-6.1,19.937-13.834,26.27-24s9.015-23.038,5.161-34.376C558.669,318.721,548.292,309.665,545.892,297.528Z" transform="translate(-124.704 -134.761)" fill="rgba(191,219,234,0.2)"/>
  <g id="Group_1" data-name="Group 1" transform="translate(264.543 49.964)">
    <path id="Path_2" data-name="Path 2" d="M1602.842,386.954c-1.646,24.8-17.118,168.7-154.768,178.442,0,0-14.2-97.362,151.733-180.466A2.1,2.1,0,0,1,1602.842,386.954Z" transform="translate(-1447.771 -384.705)" fill="rgba(127,183,214,0.2)"/>
    <path id="Path_3" data-name="Path 3" d="M1709.452,489.018c-3.579,7.092-7.3,14.1-11.083,21.082s-7.652,13.912-11.6,20.8q-11.84,20.665-24.713,40.722c-8.626,13.334-17.647,26.429-27.369,39.009q-7.261,9.457-15.215,18.37a200.63,200.63,0,0,1-16.861,16.921.815.815,0,0,1-1.075-1.224l0,0,0,0a199.091,199.091,0,0,0,16.807-16.7q7.952-8.81,15.238-18.215c9.752-12.49,18.82-25.514,27.5-38.784s16.93-26.827,24.884-40.552q5.966-10.294,11.691-20.725c3.813-6.954,7.569-13.946,11.175-21.005v0a.345.345,0,0,1,.615.313Z" transform="translate(-1570.57 -467.76)" fill="#dce5fe"/>
  </g>
  <g id="Group_2" data-name="Group 2" transform="translate(248.871 163.252)">
    <path id="Path_4" data-name="Path 4" d="M1563.341,953.881a1.6,1.6,0,0,0-2.006-2.355c-14.33,7.179-52.494,24.827-81.306,24.779-46.912-.078-102.7,22.215-110.64,56.809C1369.389,1033.114,1458.31,1100.834,1563.341,953.881Z" transform="translate(-1369.389 -951.349)" fill="rgba(127,183,214,0.4)"/>
    <path id="Path_5" data-name="Path 5" d="M1616.725,1025.107c-.388.3-.748.526-1.117.78l-1.111.732-2.236,1.438c-1.5.949-3.006,1.876-4.517,2.8q-4.54,2.763-9.143,5.423c-6.137,3.544-12.365,6.929-18.645,10.216s-12.64,6.421-19.065,9.415-12.9,5.884-19.467,8.566a343.885,343.885,0,0,1-40.217,13.833c-.852.245-1.712.462-2.574.673l-2.581.644-2.581.644c-.863.2-1.732.385-2.6.579-1.734.372-3.46.784-5.2,1.123l-5.229.986a186.954,186.954,0,0,1-21.129,2.432.2.2,0,0,1-.028-.406h0a202.716,202.716,0,0,0,21-2.855l5.2-1.043c1.73-.358,3.445-.789,5.167-1.18.859-.2,1.722-.393,2.579-.607l2.564-.672,2.563-.672c.855-.22,1.709-.447,2.556-.7,6.812-1.885,13.543-4.054,20.222-6.368s13.26-4.907,19.818-7.549c13.1-5.339,25.913-11.355,38.531-17.753q9.455-4.816,18.722-10,4.635-2.583,9.217-5.262,2.286-1.348,4.557-2.719l2.262-1.385,1.123-.7c.365-.238.756-.481,1.078-.713l.037-.026a.2.2,0,0,1,.241.324Z" transform="translate(-1441.163 -1010.07)" fill="#dce5fe"/>
  </g>
  <g id="Group_3" data-name="Group 3" transform="translate(64.357 49.964)">
    <path id="Path_6" data-name="Path 6" d="M446.577,386.954c1.646,24.8,17.118,168.7,154.768,178.442,0,0,14.2-97.362-151.733-180.466A2.1,2.1,0,0,0,446.577,386.954Z" transform="translate(-446.573 -384.705)" fill="rgba(127,183,214,0.2)"/>
    <path id="Path_7" data-name="Path 7" d="M528.035,488.708c3.606,7.059,7.362,14.051,11.175,21.005s7.714,13.863,11.691,20.725q11.931,20.588,24.884,40.552c8.678,13.271,17.746,26.295,27.5,38.784q7.283,9.389,15.238,18.215a199.081,199.081,0,0,0,16.807,16.7l0,0a.815.815,0,1,1-1.069,1.229l0,0A200.622,200.622,0,0,1,617.4,629q-7.953-8.9-15.215-18.37c-9.723-12.579-18.743-25.674-27.37-39.009S557.993,544.677,550.1,530.9q-5.92-10.333-11.6-20.8c-3.783-6.98-7.5-13.99-11.083-21.082a.345.345,0,0,1,.616-.311Z" transform="translate(-511.224 -467.76)" fill="#dce5fe"/>
  </g>
  <g id="Group_4" data-name="Group 4" transform="translate(40.184 166.503)">
    <path id="Path_8" data-name="Path 8" d="M511.9,1054.454S500.049,1026.6,464.99,1017.4c-32.528-8.54-110.942-25.694-136.99-49.491-1.154-1.054-2.826.915-2.179,2.571,6.944,17.769,27.225,59.938,70.151,83.12C451.328,1083.493,511.9,1054.454,511.9,1054.454Z" transform="translate(-325.677 -967.61)" fill="rgba(127,183,214,0.4)"/>
    <path id="Path_9" data-name="Path 9" d="M443.462,1091.765a77.609,77.609,0,0,0,13.967,16,102.194,102.194,0,0,0,17.22,12.4c3.076,1.754,6.219,3.386,9.433,4.87.806.366,1.621.711,2.431,1.067l1.216.531,1.233.49,2.465.985,2.5.906,1.247.453,1.262.411,2.524.822c.847.257,1.7.495,2.549.743s1.7.507,2.558.711c3.421.886,6.89,1.7,10.36,2.47,6.939,1.558,13.915,2.947,20.908,4.252q5.247.965,10.51,1.857l10.53,1.778c3.513.584,7.028,1.163,10.541,1.776s7.025,1.243,10.511,2.026a103.218,103.218,0,0,1,10.354,2.792c1.695.578,3.371,1.216,5,1.955a40.788,40.788,0,0,1,4.721,2.568.2.2,0,0,1-.214.347l0,0a40.325,40.325,0,0,0-4.739-2.379q-2.452-1.017-4.991-1.806a102.319,102.319,0,0,0-10.332-2.521c-6.971-1.364-14.015-2.4-21.057-3.473-14.092-2.09-28.166-4.506-42.087-7.636-3.483-.775-6.954-1.568-10.422-2.492-.871-.211-1.724-.485-2.585-.733s-1.72-.5-2.576-.766l-2.551-.846-1.275-.423-1.261-.465-2.521-.931-2.489-1.014-1.242-.511-1.225-.552c-.816-.371-1.636-.73-2.447-1.11-3.233-1.546-6.4-3.223-9.482-5.053a103.237,103.237,0,0,1-17.124-12.9,86.572,86.572,0,0,1-7.337-7.811,58.436,58.436,0,0,1-6.127-8.764.025.025,0,0,1,.01-.034A.027.027,0,0,1,443.462,1091.765Z" transform="translate(-419.874 -1066.931)" fill="#dce5fe"/>
  </g>
  <g id="Group_310" data-name="Group 310" transform="translate(150.686 5.12)">
    <g id="Group_313" data-name="Group 313">
      <g id="Group_312" data-name="Group 312">
        <path id="Path_10" data-name="Path 10" d="M1227.853,1315.125c-.124,8.558-11.109,17.678-23.8,17.678s-22.288-6.689-22.981-15.22c-1.652-20.349,10.289-20.137,22.981-20.137S1228.161,1293.973,1227.853,1315.125Z" transform="translate(-1120.417 -1069.944)" fill="#c6d2a2"/>
        <ellipse id="Ellipse_1" data-name="Ellipse 1" cx="32.176" cy="8.41" rx="32.176" ry="8.41" transform="matrix(0.997, -0.08, 0.08, 0.997, 51.946, 229.478)" fill="#c6d2a2"/>
        <ellipse id="Ellipse_2" data-name="Ellipse 2" cx="32.176" cy="8.41" rx="32.176" ry="8.41" transform="translate(51.946 221.339) rotate(-4.61)" fill="#c6d2a2"/>
        <ellipse id="Ellipse_3" data-name="Ellipse 3" cx="32.176" cy="8.41" rx="32.176" ry="8.41" transform="translate(51.946 213.199) rotate(-4.61)" fill="#c6d2a2"/>
        <ellipse id="Ellipse_4" data-name="Ellipse 4" cx="32.176" cy="8.41" rx="32.176" ry="8.41" transform="translate(51.946 205.063) rotate(-4.61)" fill="#c6d2a2"/>
      </g>
      <g id="Group_6" data-name="Group 6" transform="translate(57.346 213.242)">
        <path id="Path_11" data-name="Path 11" d="M1199.938,1364.605a76.55,76.55,0,0,1-14.051-1.149.425.425,0,0,1,.16-.836c6.223,1.191,14.535,1.454,23.4.739a100.608,100.608,0,0,0,19.628-3.385.425.425,0,1,1,.239.817,101.468,101.468,0,0,1-19.8,3.417C1206.225,1364.473,1203.006,1364.605,1199.938,1364.605Z" transform="translate(-1181.462 -1333.368)" fill="#a7b57b"/>
        <path id="Path_12" data-name="Path 12" d="M1187.72,1314.961a66.852,66.852,0,0,1-17.251-1.87.426.426,0,1,1,.233-.818c6.139,1.748,16.024,2.29,26.443,1.45,10.306-.831,19.918-2.922,25.712-5.594a.425.425,0,1,1,.356.773c-5.879,2.711-15.6,4.831-26,5.67C1193.969,1314.833,1190.772,1314.961,1187.72,1314.961Z" transform="translate(-1169.156 -1291.871)" fill="#a7b57b"/>
        <path id="Path_13" data-name="Path 13" d="M1183.616,1274.258c-7.38,0-13.837-.755-18.184-2.188a.425.425,0,1,1,.266-.808c6.049,1.995,16.3,2.649,27.431,1.753,10.306-.831,19.917-2.922,25.712-5.595a.425.425,0,0,1,.356.773c-5.88,2.712-15.6,4.832-26,5.67C1189.9,1274.128,1186.679,1274.258,1183.616,1274.258Z" transform="translate(-1165.14 -1259.301)" fill="#a7b57b"/>
        <path id="Path_14" data-name="Path 14" d="M1195.208,1233.787a73.346,73.346,0,0,1-15.318-1.393.425.425,0,1,1,.184-.83c6.224,1.383,15.187,1.741,24.589.983,10.214-.824,19.777-2.892,25.58-5.534a.425.425,0,1,1,.352.775c-5.889,2.681-15.557,4.777-25.864,5.608C1201.476,1233.658,1198.269,1233.787,1195.208,1233.787Z" transform="translate(-1176.675 -1226.974)" fill="#a7b57b"/>
      </g>
    </g>
    <path id="Path_15" data-name="Path 15" d="M919.067,335.7a59.888,59.888,0,0,0-10.727-20.941c-10.545-13.288-27.747-40.312-29.864-77.2C875.4,183.91,922.981,157.051,966.4,160.7s86.269,35.974,81.578,85.883c-2.886,30.709-20.076,54-32.875,67.38a71.07,71.07,0,0,0-17.063,30.228c-3.841,13.867-12.982,31.147-34.708,32.2C935.22,377.753,923.544,351.55,919.067,335.7Z" transform="translate(-878.334 -160.369)" fill="#87d4f8"/>
    <g id="Group_311" data-name="Group 311">
      <path id="Path_16" data-name="Path 16" d="M1339.23,779.479l15.193-98.819c.314-2.042,1.319-3.412,2.244-3.062s1.422,2.289,1.108,4.331c-.008.054-.02.122-.029.175L1340.439,780c-.13.736-.5,1.2-.835,1.039S1339.121,780.192,1339.23,779.479Z" transform="translate(-1247.048 -574.151)" fill="#fff"/>
      <path id="Path_17" data-name="Path 17" d="M1185.907,783.4l-15.193-98.819c-.314-2.042-1.319-3.413-2.244-3.062s-1.421,2.289-1.107,4.331c.008.054.019.122.029.175l17.306,97.9c.13.736.5,1.2.835,1.039S1186.016,784.116,1185.907,783.4Z" transform="translate(-1109.496 -577.29)" fill="#fff"/>
      <path id="Path_18" data-name="Path 18" d="M1236.423,602.87a1.593,1.593,0,0,0-1.994-.518l-8.46,3.953-2.936-8.367A1.8,1.8,0,0,0,1222,596.9a2.091,2.091,0,0,0-2.6.8l-.015.027-6.957,12.686-6.456-18.059-.011-.03a2.062,2.062,0,0,0-.977-1.1,2.534,2.534,0,0,0-3.194.629l-9.727,13.39a1.173,1.173,0,0,0,.343,1.69,1.631,1.631,0,0,0,2.068-.225l8.564-9.553,7.711,17.179.006.013a1.362,1.362,0,0,0,.679.666,1.612,1.612,0,0,0,2.018-.522l7.441-11.94,2.8,6.039.025.054a1.219,1.219,0,0,0,.07.128,1.592,1.592,0,0,0,1.993.518l10.042-4.692A1.2,1.2,0,0,0,1236.423,602.87Z" transform="translate(-1129.157 -504.839)" fill="#fff"/>
      <path id="Path_19" data-name="Path 19" d="M1561.59,809.839a.611.611,0,0,1-.49-.975,113.464,113.464,0,0,0,7.131-10.832.611.611,0,1,1,1.058.611,114.669,114.669,0,0,1-7.208,10.95A.611.611,0,0,1,1561.59,809.839Z" transform="translate(-1424.487 -670.3)" fill="#fff"/>
      <path id="Path_20" data-name="Path 20" d="M1624.1,466.489a.611.611,0,0,1-.56-.854,94.165,94.165,0,0,0,7.2-48.9,76.672,76.672,0,0,0-5.148-20.492.611.611,0,0,1,1.111-.509,77.84,77.84,0,0,1,5.244,20.8,95.384,95.384,0,0,1-7.29,49.584A.611.611,0,0,1,1624.1,466.489Z" transform="translate(-1474.499 -348.394)" fill="#fff"/>
    </g>
  </g>
  <g id="Group_8" data-name="Group 8" transform="translate(14.57 97.588)">
    <path id="Path_22" data-name="Path 22" d="M220.849,635.538a1.815,1.815,0,0,0-1.758-1.894c-3.338-.107-10.7.852-17.58,9.9-9.269,12.185-1.717,28.944,17.84,29.262,17.972.291,24.122-13.277,23.839-21.49a1.576,1.576,0,0,0-2.075-1.424L221.948,656.2a1.477,1.477,0,0,1-1.937-1.467Z" transform="translate(-197.573 -631.485)" fill="#f2f8fb"/>
    <path id="Path_23" data-name="Path 23" d="M325.452,624.626l-3.027,18a1.2,1.2,0,0,0,1.682,1.285l16.5-7.622a2.381,2.381,0,0,0,1.275-2.9c-1.052-3.216-4.3-9.16-14.1-10.5A2.091,2.091,0,0,0,325.452,624.626Z" transform="translate(-297.448 -622.875)" fill="#f2f8fb"/>
  </g>
  <g id="Group_15" data-name="Group 15" transform="translate(255.504 178.263)">
    <g id="Group_9" data-name="Group 9" transform="translate(54.86 60.48)">
      <rect id="Rectangle_13" data-name="Rectangle 13" width="2.118" height="22.907" transform="translate(10.237 5.133)" fill="#3f93c1"/>
      <path id="Rectangle_14" data-name="Rectangle 14" d="M1.379,0H17.173a1.379,1.379,0,0,1,1.379,1.379v0a0,0,0,0,1,0,0H0a0,0,0,0,1,0,0v0A1.379,1.379,0,0,1,1.379,0Z" transform="translate(2.02 27.102)" fill="#3f93c1"/>
      <rect id="Rectangle_15" data-name="Rectangle 15" width="23.326" height="6.615" rx="3.308" fill="#3f93c1"/>
    </g>
    <g id="Group_10" data-name="Group 10" transform="translate(23.163 46.037)">
      <path id="Path_24" data-name="Path 24" d="M1625.3,1278.189a18.434,18.434,0,0,0-6.686,2.853,1.764,1.764,0,0,0-.778,1.686,74.786,74.786,0,0,0,7.911,24.831,2.671,2.671,0,0,1,.256,1.833l-1,4.645-1.851,1.736h4.768l3.175-8.591-1.357-.429a2.568,2.568,0,0,1-1.794-2.4l-.159-9.215a10.485,10.485,0,0,0-2.517-6.939l7.614-.37Z" transform="translate(-1597.948 -1273.887)" fill="url(#linear-gradient)"/>
      <path id="Path_25" data-name="Path 25" d="M1635.078,1430.819c-.434.568,4.674,1.318,7.254.075,0,0,3.577-6.224,3.577-9.428,0,0-.284-.654-2.384-.505,0,0-1.2,7.369-2.469,8.195s-3.548.083-3.548.083A7.469,7.469,0,0,0,1635.078,1430.819Z" transform="translate(-1611.73 -1388.095)" fill="url(#linear-gradient-2)"/>
      <path id="Path_26" data-name="Path 26" d="M1561.163,1293.063c-.041-.07-8.2-.981-8.2-.981a18.852,18.852,0,0,1-.568,5.895c-.834,3.414-12.811,18.207-12.811,18.207l1.256,3.981a20.2,20.2,0,0,1-11.461.689l7.783-4.671s7.284-24.822,11.745-29.25l8.177-2.829Z" transform="translate(-1527.188 -1278.62)" fill="url(#linear-gradient-3)"/>
      <path id="Path_27" data-name="Path 27" d="M1657.924,1256.673s4.7,6.99,5.086,10.179-1.288,4.484-6.219,4.7-18.1.21-18.1.21l-11.236-9.6s8.188-2.922,10.317-3.748S1657.924,1256.673,1657.924,1256.673Z" transform="translate(-1605.655 -1256.673)" fill="#006fad"/>
      <path id="Path_28" data-name="Path 28" d="M1531.591,1457.747a2.3,2.3,0,0,1,.439,2.767s-10.71,1.9-13.618,1.037c0,0,.6-1.378,3.878-2.947l-.242.185a.391.391,0,0,0,.259.7C1524.464,1459.368,1528.929,1458.973,1531.591,1457.747Z" transform="translate(-1518.411 -1417.543)" fill="url(#linear-gradient-4)"/>
    </g>
    <g id="Group_11" data-name="Group 11" transform="translate(51.572)">
      <path id="Path_29" data-name="Path 29" d="M1677.4,1150.652a107.279,107.279,0,0,1-8.167-8.663,7.323,7.323,0,0,1-1.24-6.591,90.781,90.781,0,0,1,3.615-9.1c.306-1.024,6.442-.981,6.442-.981s12.076,7.837,16.82,21.113l-5.329,1.659a62.258,62.258,0,0,0-6.269-8.653s5.391,7.121,5.581,10.037Z" transform="translate(-1666.249 -1105.54)" fill="#3f93c1"/>
      <path id="Path_30" data-name="Path 30" d="M1683.579,1098.294c.064.213,1.666,5.523,1.791,5.633s3.512.292,5.107-.8l-2.705-5.662Z" transform="translate(-1678.963 -1083.262)" fill="url(#linear-gradient-5)"/>
      <path id="Path_31" data-name="Path 31" d="M1673.561,1045.132s-2.892,1.221-4.858,5.4-.5,6.108,1.346,6.373a8.633,8.633,0,0,0,7.52-2.475C1680.486,1051.73,1677.32,1043.685,1673.561,1045.132Z" transform="translate(-1666.314 -1041.253)" fill="url(#linear-gradient-6)"/>
      <path id="Path_32" data-name="Path 32" d="M1686.516,1037.37s2.182-6.113-3.239-6.185l-1.275.891s-1.989-3.389,1.275-5.007a6.941,6.941,0,0,1,9.523,4.22c1.389,4.4.576,7.237-1.735,9.341s-3.263-.282-3.263-.282,1.258-1.968.746-3.021-1.694.218-1.694.218Z" transform="translate(-1677.222 -1026.425)" fill="#09005d"/>
      <path id="Path_33" data-name="Path 33" d="M1710.017,1075.807s1.1-3.149,2.575-1.895-1.2,2.909-2.24,3.445Z" transform="translate(-1700.115 -1064.181)" fill="url(#linear-gradient-7)"/>
      <path id="Path_34" data-name="Path 34" d="M1660.494,1235.52l4.021-3.876,5.563,2.35s5.537.858,8.706,0l3.169-.858,7.162-2.229,1.125,3.179a1.914,1.914,0,0,1-.7,2.2,12.628,12.628,0,0,1-1.809,1.127c-.943.413-23.248-.285-23.248-.285Z" transform="translate(-1660.494 -1190.021)" fill="url(#linear-gradient-8)"/>
      <path id="Path_35" data-name="Path 35" d="M1734.938,1045.362a1.24,1.24,0,0,1,.74-2.068c3.177-.5,8.022.01,10.057,6.812,2.292,7.662,3.784,11.492,5.315,12.164a1.246,1.246,0,0,1,.068,2.287,5.286,5.286,0,0,1-3.319.117C1736.091,1062.1,1739.025,1049.538,1734.938,1045.362Z" transform="translate(-1719.784 -1039.809)" fill="#09005d"/>
    </g>
    <g id="Group_12" data-name="Group 12" transform="translate(20.888 26.148)">
      <path id="Path_36" data-name="Path 36" d="M1638.878,1254.666h-.053l-23.326-.026a1.044,1.044,0,0,1,0-2.088l23.326.026a1.044,1.044,0,0,1,.051,2.087Z" transform="translate(-1592.977 -1233.487)" fill="#005381"/>
      <path id="Path_37" data-name="Path 37" d="M1508.585,1157.2h19.426a3.7,3.7,0,0,1,3.349,2.123l8.981,19.043H1516.2a2.25,2.25,0,0,1-2.093-1.423l-6.964-17.622A1.551,1.551,0,0,1,1508.585,1157.2Z" transform="translate(-1507.032 -1157.198)" fill="#005381"/>
      <path id="Path_38" data-name="Path 38" d="M1570.837,1198.245c.421,1.308.11,2.578-.695,2.837s-1.8-.591-2.219-1.9-.11-2.578.695-2.837S1570.416,1196.937,1570.837,1198.245Z" transform="translate(-1555.598 -1188.481)" fill="#3f93c1"/>
    </g>
    <g id="Group_14" data-name="Group 14" transform="translate(0 47.104)">
      <path id="Path_39" data-name="Path 39" d="M1501.958,1263.084a.862.862,0,0,0-.2-.746.988.988,0,0,0-.742-.328h-97.338a1.128,1.128,0,0,0-.933.479.983.983,0,0,0-.072.995l1.055,2.14a1.486,1.486,0,0,0,1.341.8h95.281a1.1,1.1,0,0,0,1.1-.849Z" transform="translate(-1402.566 -1262.01)" fill="#3f93c1"/>
      <g id="Group_13" data-name="Group 13" transform="translate(5.71 1.818)">
        <path id="Path_40" data-name="Path 40" d="M1431.976,1315.463a.833.833,0,0,1-.337-.072.881.881,0,0,1-.447-1.148l17.915-42.611a.847.847,0,0,1,1.122-.458.882.882,0,0,1,.447,1.148l-17.915,42.611A.854.854,0,0,1,1431.976,1315.463Z" transform="translate(-1431.122 -1271.103)" fill="#3f93c1"/>
        <path id="Path_41" data-name="Path 41" d="M1461.226,1315.462a.853.853,0,0,1-.785-.529l-17.915-42.611a.882.882,0,0,1,.447-1.148.848.848,0,0,1,1.122.458l17.915,42.611a.881.881,0,0,1-.447,1.148A.832.832,0,0,1,1461.226,1315.462Z" transform="translate(-1440.19 -1271.103)" fill="#3f93c1"/>
        <path id="Path_42" data-name="Path 42" d="M1784.806,1315.463a.834.834,0,0,1-.337-.072.881.881,0,0,1-.447-1.148l17.915-42.611a.847.847,0,0,1,1.122-.458.882.882,0,0,1,.447,1.148l-17.915,42.611A.854.854,0,0,1,1784.806,1315.463Z" transform="translate(-1713.405 -1271.103)" fill="#3f93c1"/>
        <path id="Path_43" data-name="Path 43" d="M1814.056,1315.462a.853.853,0,0,1-.785-.529l-17.915-42.611a.882.882,0,0,1,.447-1.148.847.847,0,0,1,1.122.458l17.915,42.611a.882.882,0,0,1-.447,1.148A.832.832,0,0,1,1814.056,1315.462Z" transform="translate(-1722.472 -1271.103)" fill="#3f93c1"/>
      </g>
    </g>
  </g>
  <g id="Group_23" data-name="Group 23" transform="translate(330.486 109.744)">
    <g id="Group_17" data-name="Group 17">
      <path id="Path_44" data-name="Path 44" d="M1808.738,728.774s-42.193-20.847-28.395-36.2,39.524-9.214,40.827,6.941S1791.163,711.883,1808.738,728.774Z" transform="translate(-1777.571 -683.736)" fill="#fff"/>
      <g id="Group_16" data-name="Group 16" transform="translate(4.68 12.398)">
        <path id="Path_45" data-name="Path 45" d="M1826.28,746.556h-18.621a.407.407,0,1,1,0-.815h18.621a.407.407,0,0,1,0,.815Z" transform="translate(-1805.996 -745.741)" fill="#7fb7d6"/>
        <path id="Path_46" data-name="Path 46" d="M1933.968,746.556h-5.525a.407.407,0,1,1,0-.815h5.525a.407.407,0,0,1,0,.815Z" transform="translate(-1902.63 -745.741)" fill="#7fb7d6"/>
        <path id="Path_47" data-name="Path 47" d="M1811.513,765.41h-6.992a.407.407,0,0,1,0-.815h6.992a.407.407,0,0,1,0,.815Z" transform="translate(-1803.486 -760.825)" fill="#7fb7d6"/>
        <path id="Path_48" data-name="Path 48" d="M1903.226,765.41H1890.8a.407.407,0,1,1,0-.815h12.424a.407.407,0,0,1,0,.815Z" transform="translate(-1872.516 -760.825)" fill="#7fb7d6"/>
        <path id="Path_49" data-name="Path 49" d="M1819.97,784.265h-18.587a.407.407,0,1,1,0-.815h18.587a.407.407,0,1,1,0,.815Z" transform="translate(-1800.976 -775.91)" fill="#7fb7d6"/>
        <path id="Path_50" data-name="Path 50" d="M1924.055,784.265h-6.435a.407.407,0,0,1,0-.815h6.435a.407.407,0,0,1,0,.815Z" transform="translate(-1893.972 -775.91)" fill="#7fb7d6"/>
      </g>
    </g>
    <g id="Group_22" data-name="Group 22" transform="translate(8.321 41.32)">
      <path id="Path_51" data-name="Path 51" d="M1948.676,1457.9s.418,2.368.623,4.712a1.615,1.615,0,0,1-1.545,1.75c-3.121.13-9.8.383-12.193.276a.525.525,0,0,1-.462-.72h0a1.176,1.176,0,0,1,.6-.634l11.028-5.068Z" transform="translate(-1911.892 -1344.428)" fill="url(#linear-gradient-9)"/>
      <path id="Path_52" data-name="Path 52" d="M1990.512,1449.192l-.336,2.832s-1.932.9-3.251-.113l.8-3.156Z" transform="translate(-1953.386 -1337.111)" fill="url(#linear-gradient-10)"/>
      <path id="Path_53" data-name="Path 53" d="M1991.189,1184.651c.145.74.779,36.906-3.087,53.114a.55.55,0,0,0,.323.64,9.572,9.572,0,0,0,3.148.64.948.948,0,0,0,.94-.68c1.1-3.76,6.4-22.6,7.091-40.6.772-20.111,0-.685,0-.685l-.453-12.431Z" transform="translate(-1954.315 -1125.813)" fill="url(#linear-gradient-11)"/>
      <path id="Path_54" data-name="Path 54" d="M2048.894,1464.078a17.045,17.045,0,0,1,1.31,4.371.985.985,0,0,1-.867,1.18c-1.031.1-2.617.232-3.888.223a.982.982,0,0,1-.972-1.1,8.285,8.285,0,0,1,1.934-4.544Z" transform="translate(-1999.425 -1349.371)" fill="url(#linear-gradient-12)"/>
      <path id="Path_55" data-name="Path 55" d="M2057.129,1445.194l-.785,4.283a2.768,2.768,0,0,1-2.312.159l.375-4.608Z" transform="translate(-2007.075 -1334.129)" fill="url(#linear-gradient-13)"/>
      <path id="Path_56" data-name="Path 56" d="M2017.624,1182.2c3.162,19.082-.686,47.162-1.984,52.658a.857.857,0,0,1-.692.651,5.753,5.753,0,0,1-2.473-.1.786.786,0,0,1-.565-.723c-.174-4.443.139-31.721-2.807-42.5a2.449,2.449,0,0,0-.945-1.351l-5.718-4.065L2002,1180.2Z" transform="translate(-1965.449 -1122.251)" fill="url(#linear-gradient-14)"/>
      <g id="Group_18" data-name="Group 18" transform="translate(4.04 9.117)">
        <path id="Path_57" data-name="Path 57" d="M1924.636,1003.181a89.07,89.07,0,0,1,19.93,2.488c2.824,16.48.494,35.489.494,35.489-7.336,1.924-15.61-1.176-15.61-1.176-1.219-6.888-6.908-26.275-6.908-26.275a31.211,31.211,0,0,1-11.584-3.676,20.31,20.31,0,0,0,4.015-8.4A31.788,31.788,0,0,0,1924.636,1003.181Z" transform="translate(-1896.648 -988.506)" fill="#006fad"/>
        <path id="Path_58" data-name="Path 58" d="M1839.388,936.7a1.813,1.813,0,0,1,2.109-.592c1.395,5.89,8.706,10.666,16.217,13a20.315,20.315,0,0,1-4.016,8.4C1841.232,950.5,1839.388,936.7,1839.388,936.7Z" transform="translate(-1839.388 -935.986)" fill="url(#linear-gradient-15)"/>
      </g>
      <g id="Group_19" data-name="Group 19">
        <path id="Path_59" data-name="Path 59" d="M1823.45,900.51c-.1.31,1.031.781,1.695-.485.023-.607.392-3.207.03-3.7a48.429,48.429,0,0,0-5.677-5.934.891.891,0,0,0-.111,1.238l1.817,1.892a8.79,8.79,0,0,0-1.061,2.1,2.546,2.546,0,0,0,.254,1.874c.319.574.754,1.321,1.165,1.906A2.513,2.513,0,0,0,1823.45,900.51Z" transform="translate(-1819.185 -890.389)" fill="url(#linear-gradient-16)"/>
        <path id="Path_60" data-name="Path 60" d="M1831.789,912.186l1.656,1.4.52,1.4-1.476,1.637a19.037,19.037,0,0,0-.865-3.372C1831.254,912.652,1831.445,912.361,1831.789,912.186Z" transform="translate(-1828.976 -907.828)" fill="url(#linear-gradient-17)"/>
      </g>
      <path id="Path_61" data-name="Path 61" d="M2060.869,1031l3.635-9.175s8.85,6.014,10.306,13.638a20.948,20.948,0,0,0-7.694,2.062C2066.46,1033.922,2060.869,1031,2060.869,1031Z" transform="translate(-2012.545 -995.542)" fill="#006fad"/>
      <path id="Path_62" data-name="Path 62" d="M2016.925,1094.2s9.937,5.616,13.29.821a3.769,3.769,0,0,0,.691-2.929,20.946,20.946,0,0,1,7.694-2.062,10.524,10.524,0,0,1-1.144,7.214c-5.873,10.743-21.846-.594-21.846-.594Z" transform="translate(-1976.335 -1050.112)" fill="url(#linear-gradient-18)"/>
      <g id="Group_20" data-name="Group 20" transform="translate(16.959 28.84)">
        <path id="Path_63" data-name="Path 63" d="M1928.828,1064.342l-5.423-18.939a.552.552,0,0,0-.467-.4c-.983-.115-3.83-.437-7.117-.715a80.747,80.747,0,0,0-11.306-.375.554.554,0,0,0-.453.8c1.563,3.161,7.99,16.021,11.209,20.233a.555.555,0,0,0,.447.219l12.583-.117A.554.554,0,0,0,1928.828,1064.342Z" transform="translate(-1904.004 -1041.99)" fill="#3f93c1"/>
        <path id="Path_64" data-name="Path 64" d="M1943.242,1035.288l-3.932-.655a.282.282,0,0,0-.314.367l.389,1.179a.282.282,0,0,0,.231.191l3.783.505a.282.282,0,0,0,.312-.344l-.241-1.03A.282.282,0,0,0,1943.242,1035.288Z" transform="translate(-1931.988 -1034.629)" fill="url(#linear-gradient-19)"/>
        <path id="Path_65" data-name="Path 65" d="M1938.848,1043.33l-.324-1.687a.389.389,0,0,0-.343-.314l-7.941-.806a.39.39,0,0,0-.419.479l.505,2.1a.39.39,0,0,0,.36.3l7.76.391A.39.39,0,0,0,1938.848,1043.33Z" transform="translate(-1924.65 -1039.343)" fill="url(#linear-gradient-20)"/>
        <path id="Path_66" data-name="Path 66" d="M1994.789,1097.7s.755-3.106.451-4.209-.9-2.519-2.863-2.2a28.8,28.8,0,0,0-4.289,1.144,1.126,1.126,0,0,0,1.613.973l-.927.718s.133,1.15,1.4.535l-.863.952a1,1,0,0,0,1.472.339C1991.707,1095.339,1992.153,1098.071,1994.789,1097.7Z" transform="translate(-1971.275 -1079.921)" fill="url(#linear-gradient-21)"/>
      </g>
      <path id="Path_67" data-name="Path 67" d="M2002.814,970.907l3.015,8.719a.314.314,0,0,1-.143.378,7.088,7.088,0,0,1-7.351-.494,1.479,1.479,0,0,1-.681-1.057l-.976-7.546Z" transform="translate(-1961.189 -954.808)" fill="url(#linear-gradient-22)"/>
      <g id="Group_21" data-name="Group 21" transform="translate(32.142 3.494)">
        <path id="Path_68" data-name="Path 68" d="M1982.861,930.526s-3.31,6.232-2.886,8.749,4.527,2.337,8.11.292l2.5-6.729Z" transform="translate(-1979.937 -925.995)" fill="url(#linear-gradient-23)"/>
        <path id="Path_69" data-name="Path 69" d="M1992.844,918.132a.257.257,0,0,1-.112-.376,6.706,6.706,0,0,0,.921-1.956s.6-.381-1.515-.886-5.256-1.289-5.918-3.085c-.645-1.751,1.05-6.155,3.752-2.646a.257.257,0,0,0,.407,0,2.648,2.648,0,0,1,3.225-1.048,2.429,2.429,0,0,1,1.663,2.347.255.255,0,0,0,.3.261,2.962,2.962,0,0,1,3.459,1.612c.706,1.552.247,2.43-.171,2.86a.256.256,0,0,0,.109.425,1.541,1.541,0,0,1,1.087,1.759c-.09,1.629-1.911,1.485-2.43,1.411a.258.258,0,0,0-.228.081c-.445.492-2.448,2.581-4.616,2.833a.259.259,0,0,1-.271-.342l.938-2.728a.259.259,0,0,0-.139-.32Z" transform="translate(-1984.854 -907.863)" fill="#005381"/>
        <path id="Path_70" data-name="Path 70" d="M2015.089,957.949s2.357-1.617,2.529-.255-2.123,1.973-3.259,1.465Z" transform="translate(-2007.476 -947.294)" fill="url(#linear-gradient-24)"/>
      </g>
    </g>
  </g>
  <g id="Group_24" data-name="Group 24" transform="translate(43.695 56.211)">
    <path id="Path_71" data-name="Path 71" d="M1566.267,1103.94l-.217-1.192,0-.011a.409.409,0,1,1,.805-.146h0l.216,1.214a.407.407,0,1,1-.8.142Z" transform="translate(-1321.545 -965.027)" fill="url(#linear-gradient-25)"/>
    <path id="Path_72" data-name="Path 72" d="M1561.568,1084.125l-.323-1.167,0-.011a.417.417,0,0,1,.8-.223h0l.324,1.19a.415.415,0,0,1-.8.218Z" transform="translate(-1317.693 -949.158)" fill="url(#linear-gradient-26)"/>
    <path id="Path_73" data-name="Path 73" d="M1555.135,1064.806l-.424-1.134,0-.01a.425.425,0,1,1,.8-.3h0l.427,1.156a.423.423,0,1,1-.793.293Z" transform="translate(-1312.455 -933.692)" fill="url(#linear-gradient-25)"/>
    <path id="Path_74" data-name="Path 74" d="M1547.065,1046.113l-.519-1.094,0-.01a.433.433,0,1,1,.783-.371h0l.523,1.115a.431.431,0,0,1-.78.366Z" transform="translate(-1305.91 -918.733)" fill="url(#linear-gradient-25)"/>
    <path id="Path_75" data-name="Path 75" d="M1537.477,1028.149l-.606-1.048-.005-.009a.442.442,0,1,1,.764-.442v0l.612,1.069a.439.439,0,1,1-.762.436Z" transform="translate(-1298.155 -904.363)" fill="url(#linear-gradient-25)"/>
    <path id="Path_76" data-name="Path 76" d="M1526.5,1011l-.686-1-.006-.008a.45.45,0,1,1,.741-.509v0l.693,1.018a.447.447,0,1,1-.739.5Z" transform="translate(-1289.295 -890.646)" fill="url(#linear-gradient-25)"/>
    <path id="Path_77" data-name="Path 77" d="M1514.268,994.709l-.758-.946-.006-.008a.457.457,0,1,1,.714-.572h0l.766.964a.455.455,0,0,1-.713.566Z" transform="translate(-1279.432 -877.627)" fill="url(#linear-gradient-25)"/>
    <path id="Path_78" data-name="Path 78" d="M1500.9,979.331l-.822-.891-.006-.007a.466.466,0,0,1,.684-.631h0l.831.908a.463.463,0,0,1-.683.625Z" transform="translate(-1268.67 -865.338)" fill="url(#linear-gradient-25)"/>
    <path id="Path_79" data-name="Path 79" d="M1486.527,964.889l-.88-.835-.007-.006a.474.474,0,0,1,.652-.687h0l.89.851a.471.471,0,0,1-.651.681Z" transform="translate(-1257.103 -853.801)" fill="url(#linear-gradient-25)"/>
    <path id="Path_80" data-name="Path 80" d="M1471.248,951.4l-.931-.777-.007-.006a.482.482,0,1,1,.618-.74h0l.942.793a.479.479,0,0,1-.617.733Z" transform="translate(-1244.817 -843.03)" fill="url(#linear-gradient-25)"/>
    <path id="Path_81" data-name="Path 81" d="M1455.164,938.885l-.977-.719-.007-.005a.49.49,0,0,1,.581-.789h0l.988.734a.487.487,0,0,1-.581.783Z" transform="translate(-1231.89 -833.035)" fill="url(#linear-gradient-25)"/>
    <path id="Path_82" data-name="Path 82" d="M1438.36,927.346l-1.019-.661-.007,0a.5.5,0,0,1,.542-.835h0l1.031.675a.5.5,0,1,1-.543.829Z" transform="translate(-1218.391 -823.826)" fill="url(#linear-gradient-25)"/>
    <path id="Path_83" data-name="Path 83" d="M1420.916,916.8l-1.054-.6-.007,0a.506.506,0,1,1,.5-.879h0l1.066.614a.5.5,0,1,1-.5.872Z" transform="translate(-1204.384 -815.414)" fill="url(#linear-gradient-25)"/>
    <path id="Path_84" data-name="Path 84" d="M1402.9,907.263l-1.086-.541-.008,0a.514.514,0,1,1,.458-.92h0l1.1.552a.511.511,0,0,1-.459.914Z" transform="translate(-1189.924 -807.809)" fill="url(#linear-gradient-25)"/>
    <path id="Path_85" data-name="Path 85" d="M1384.386,898.751l-1.115-.479-.008,0a.522.522,0,0,1,.412-.959h0l1.129.49a.519.519,0,1,1-.414.953Z" transform="translate(-1175.06 -801.026)" fill="url(#linear-gradient-25)"/>
    <path id="Path_86" data-name="Path 86" d="M1365.421,891.289l-1.14-.415-.008,0a.53.53,0,1,1,.363-1h0l1.155.426a.527.527,0,1,1-.365.99Z" transform="translate(-1159.841 -795.087)" fill="url(#linear-gradient-25)"/>
    <path id="Path_87" data-name="Path 87" d="M1346.068,884.912l-1.161-.349-.009,0a.538.538,0,1,1,.31-1.03h0l1.177.359a.536.536,0,1,1-.313,1.024Z" transform="translate(-1144.312 -790.017)" fill="url(#linear-gradient-25)"/>
    <path id="Path_88" data-name="Path 88" d="M1326.4,879.641l-1.178-.285-.008,0a.546.546,0,0,1,.257-1.061h0l1.192.294a.544.544,0,0,1-.26,1.056Z" transform="translate(-1128.534 -785.834)" fill="url(#linear-gradient-25)"/>
    <path id="Path_89" data-name="Path 89" d="M1306.479,875.341l-1.192-.23h-.007a.554.554,0,1,1,.21-1.088h0l1.206.238a.552.552,0,0,1-.214,1.083Z" transform="translate(-1112.562 -782.42)" fill="url(#linear-gradient-25)"/>
    <path id="Path_90" data-name="Path 90" d="M1286.385,871.95l-1.2-.177h-.007a.562.562,0,1,1,.164-1.112h0l1.215.184a.56.56,0,1,1-.167,1.107Z" transform="translate(-1096.453 -779.734)" fill="url(#linear-gradient-25)"/>
    <path id="Path_91" data-name="Path 91" d="M1266.165,869.43l-1.208-.126h-.007a.57.57,0,1,1,.118-1.134h0l1.222.132a.568.568,0,1,1-.122,1.129Z" transform="translate(-1080.247 -777.744)" fill="url(#linear-gradient-25)"/>
    <path id="Path_92" data-name="Path 92" d="M1245.858,867.739l-1.213-.078h-.006a.578.578,0,1,1,.074-1.154h0l1.225.083a.576.576,0,1,1-.078,1.149Z" transform="translate(-1063.973 -776.416)" fill="url(#linear-gradient-25)"/>
    <path id="Path_93" data-name="Path 93" d="M1225.5,866.829l-1.215-.032h-.006a.586.586,0,1,1,.031-1.172h0l1.227.037a.584.584,0,0,1-.036,1.167Z" transform="translate(-1047.661 -775.71)" fill="url(#linear-gradient-47)"/>
    <path id="Path_94" data-name="Path 94" d="M1205.125,866.626l-1.216.01h-.006a.594.594,0,0,1-.01-1.189h0l1.228-.005a.592.592,0,0,1,.005,1.184Z" transform="translate(-1031.336 -775.564)" fill="url(#linear-gradient-47)"/>
    <path id="Path_95" data-name="Path 95" d="M1184.752,866.964l-1.215.049h-.005a.6.6,0,1,1-.049-1.2h0l1.226-.045a.6.6,0,1,1,.044,1.2Z" transform="translate(-1015.015 -775.822)" fill="url(#linear-gradient-25)"/>
    <path id="Path_96" data-name="Path 96" d="M1164.4,867.94l-1.214.085h-.005a.61.61,0,1,1-.086-1.218h0l1.224-.081a.608.608,0,1,1,.081,1.213Z" transform="translate(-998.716 -776.591)" fill="url(#linear-gradient-25)"/>
    <path id="Path_97" data-name="Path 97" d="M1144.118,869.515l-1.211.117h0a.613.613,0,1,1-.118-1.221h0l1.221-.116a.613.613,0,0,1,.116,1.219Z" transform="translate(-982.473 -777.844)" fill="url(#linear-gradient-25)"/>
    <path id="Path_98" data-name="Path 98" d="M1123.884,871.63l-1.208.147h0a.616.616,0,0,1-.149-1.223h0l1.216-.147a.615.615,0,1,1,.147,1.222Z" transform="translate(-966.273 -779.534)" fill="url(#linear-gradient-25)"/>
    <path id="Path_99" data-name="Path 99" d="M1103.7,874.233l-1.206.175h0a.619.619,0,0,1-.177-1.225h0l1.214-.174a.618.618,0,1,1,.176,1.224Z" transform="translate(-950.113 -781.613)" fill="url(#linear-gradient-25)"/>
    <path id="Path_100" data-name="Path 100" d="M1083.579,877.277l-1.2.2h0a.622.622,0,0,1-.2-1.227h0l1.209-.2a.621.621,0,1,1,.2,1.225Z" transform="translate(-934.006 -784.046)" fill="url(#linear-gradient-25)"/>
    <path id="Path_101" data-name="Path 101" d="M1063.521,880.716l-1.2.221h0a.624.624,0,1,1-.227-1.228h0l1.2-.221a.624.624,0,0,1,.225,1.227Z" transform="translate(-917.95 -786.794)" fill="url(#linear-gradient-25)"/>
    <path id="Path_102" data-name="Path 102" d="M1043.526,884.506l-1.195.241h0a.627.627,0,1,1-.248-1.23h0l1.2-.24a.626.626,0,0,1,.246,1.228Z" transform="translate(-901.945 -789.824)" fill="url(#linear-gradient-25)"/>
    <path id="Path_103" data-name="Path 103" d="M1023.589,888.6l-1.192.258h0a.63.63,0,1,1-.266-1.231h0l1.2-.257a.629.629,0,1,1,.264,1.23Z" transform="translate(-885.988 -793.1)" fill="url(#linear-gradient-25)"/>
    <path id="Path_104" data-name="Path 104" d="M1003.7,892.971l-1.19.272h0a.633.633,0,0,1-.282-1.234h0l1.194-.272a.632.632,0,0,1,.28,1.233Z" transform="translate(-870.072 -796.59)" fill="url(#linear-gradient-25)"/>
    <path id="Path_105" data-name="Path 105" d="M983.865,897.566l-1.187.284a.635.635,0,1,1-.3-1.235h0l1.191-.283a.635.635,0,1,1,.293,1.235Z" transform="translate(-854.195 -800.263)" fill="url(#linear-gradient-25)"/>
    <path id="Path_106" data-name="Path 106" d="M964.058,902.329l-1.187.292a.638.638,0,0,1-.307-1.239h0l1.19-.291a.638.638,0,1,1,.3,1.239Z" transform="translate(-838.343 -804.07)" fill="url(#linear-gradient-25)"/>
    <path id="Path_107" data-name="Path 107" d="M944.281,907.211l-1.185.3a.641.641,0,0,1-.313-1.244h0l1.186-.3a.64.64,0,0,1,.31,1.242Z" transform="translate(-822.518 -807.972)" fill="url(#linear-gradient-25)"/>
    <path id="Path_108" data-name="Path 108" d="M924.519,912.16l-1.184.3a.644.644,0,1,1-.316-1.248h0l1.185-.3a.643.643,0,0,1,.314,1.247Z" transform="translate(-806.704 -811.928)" fill="url(#linear-gradient-25)"/>
    <path id="Path_109" data-name="Path 109" d="M904.759,917.134l-1.185.3a.647.647,0,1,1-.317-1.254h0l1.185-.3a.646.646,0,0,1,.316,1.252Z" transform="translate(-790.892 -815.903)" fill="url(#linear-gradient-25)"/>
    <path id="Path_110" data-name="Path 110" d="M884.988,922.087l-1.186.3a.65.65,0,0,1-.315-1.26h0l1.185-.294a.649.649,0,0,1,.314,1.258Z" transform="translate(-775.072 -819.861)" fill="url(#linear-gradient-25)"/>
    <path id="Path_111" data-name="Path 111" d="M865.2,926.974l-1.188.291A.652.652,0,0,1,863.7,926h0l1.186-.289a.651.651,0,1,1,.31,1.265Z" transform="translate(-759.236 -823.766)" fill="url(#linear-gradient-25)"/>
    <path id="Path_112" data-name="Path 112" d="M845.374,931.75l-1.191.282a.655.655,0,0,1-.3-1.275h0l1.188-.28a.654.654,0,1,1,.3,1.273Z" transform="translate(-743.375 -827.581)" fill="url(#linear-gradient-25)"/>
    <path id="Path_113" data-name="Path 113" d="M825.509,936.367l-1.193.271a.658.658,0,0,1-.291-1.283h0l1.19-.269h0a.657.657,0,0,1,.29,1.281Z" transform="translate(-727.482 -831.27)" fill="url(#linear-gradient-25)"/>
    <path id="Path_114" data-name="Path 114" d="M805.594,940.779l-1.2.257a.66.66,0,1,1-.277-1.292h0l1.192-.254h0a.66.66,0,0,1,.276,1.29Z" transform="translate(-711.55 -834.794)" fill="url(#linear-gradient-25)"/>
    <path id="Path_115" data-name="Path 115" d="M785.616,944.939l-1.2.24a.663.663,0,0,1-.26-1.3h0l1.2-.238h0a.662.662,0,0,1,.259,1.3Z" transform="translate(-695.566 -838.116)" fill="url(#linear-gradient-25)"/>
    <path id="Path_116" data-name="Path 116" d="M765.577,948.8l-1.206.22a.666.666,0,0,1-.239-1.31h0l1.2-.217h0a.665.665,0,0,1,.238,1.309Z" transform="translate(-679.537 -841.199)" fill="url(#linear-gradient-25)"/>
    <path id="Path_117" data-name="Path 117" d="M745.474,952.309l-1.21.2a.669.669,0,0,1-.215-1.32h.005l1.2-.194h0a.668.668,0,0,1,.214,1.319Z" transform="translate(-663.458 -844.001)" fill="url(#linear-gradient-25)"/>
    <path id="Path_118" data-name="Path 118" d="M725.315,955.418l-1.213.171a.672.672,0,1,1-.188-1.33h.005l1.2-.168h0a.671.671,0,0,1,.187,1.328Z" transform="translate(-647.336 -846.482)" fill="url(#linear-gradient-25)"/>
    <path id="Path_119" data-name="Path 119" d="M705.086,958.08l-1.217.142a.674.674,0,1,1-.157-1.339h.006l1.208-.14h.005a.674.674,0,0,1,.156,1.338Z" transform="translate(-631.159 -848.606)" fill="url(#linear-gradient-25)"/>
    <path id="Path_120" data-name="Path 120" d="M684.8,960.244l-1.221.11a.677.677,0,0,1-.122-1.349h.007l1.21-.108h.005a.676.676,0,0,1,.121,1.347Z" transform="translate(-614.935 -850.331)" fill="url(#linear-gradient-25)"/>
    <path id="Path_121" data-name="Path 121" d="M664.463,961.863l-1.225.076a.68.68,0,0,1-.084-1.357h.007l1.213-.074h.006a.679.679,0,0,1,.083,1.356Z" transform="translate(-598.677 -851.62)" fill="url(#linear-gradient-25)"/>
    <path id="Path_122" data-name="Path 122" d="M644.078,962.88l-1.229.035a.683.683,0,1,1-.039-1.365h.009l1.214-.033h.008a.682.682,0,0,1,.038,1.363Z" transform="translate(-582.38 -852.429)" fill="url(#linear-gradient-25)"/>
    <path id="Path_123" data-name="Path 123" d="M623.672,963.1l-1.23-.013a.685.685,0,1,1,.014-1.371h.009l1.214.014h.008a.685.685,0,0,1-.015,1.369Z" transform="translate(-566.073 -852.593)" fill="url(#linear-gradient-25)"/>
    <path id="Path_124" data-name="Path 124" d="M603.277,962.373l-1.229-.064a.688.688,0,1,1,.072-1.375h.01l1.211.065h.009a.687.687,0,0,1-.072,1.373Z" transform="translate(-549.777 -851.963)" fill="url(#linear-gradient-25)"/>
    <path id="Path_125" data-name="Path 125" d="M582.93,960.758l-1.226-.119a.691.691,0,1,1,.134-1.375h.011l1.206.119h.01a.69.69,0,0,1-.134,1.374Z" transform="translate(-533.523 -850.624)" fill="url(#linear-gradient-25)"/>
    <path id="Path_126" data-name="Path 126" d="M562.677,958.188l-1.219-.179a.694.694,0,0,1,.2-1.373h0l.011,0,1.2.177h.01a.693.693,0,0,1-.2,1.371Z" transform="translate(-517.35 -848.519)" fill="url(#linear-gradient-25)"/>
    <path id="Path_127" data-name="Path 127" d="M542.579,954.583l-1.209-.243a.7.7,0,1,1,.275-1.366h0l.011,0,1.186.24.011,0a.7.7,0,0,1-.276,1.364Z" transform="translate(-501.306 -845.583)" fill="url(#linear-gradient-25)"/>
    <path id="Path_128" data-name="Path 128" d="M522.711,949.856l-1.194-.313a.7.7,0,0,1,.355-1.353h0l.012,0,1.169.309.012,0a.7.7,0,0,1-.356,1.351Z" transform="translate(-485.453 -841.748)" fill="url(#linear-gradient-25)"/>
    <path id="Path_129" data-name="Path 129" d="M503.168,943.916l-1.173-.39a.7.7,0,1,1,.443-1.332h0l.013,0,1.145.382.013,0a.7.7,0,0,1-.443,1.331Z" transform="translate(-469.866 -836.941)" fill="url(#linear-gradient-25)"/>
    <path id="Path_130" data-name="Path 130" d="M484.058,936.668l-1.146-.472a.7.7,0,0,1,.537-1.3h0l.014.006,1.116.462.014.006a.7.7,0,0,1-.537,1.3Z" transform="translate(-454.635 -831.086)" fill="url(#linear-gradient-25)"/>
    <path id="Path_131" data-name="Path 131" d="M465.536,928.032l-1.106-.558a.708.708,0,0,1,.637-1.264h0l.015.008,1.075.544.015.008a.707.707,0,0,1-.637,1.262Z" transform="translate(-439.886 -824.121)" fill="url(#linear-gradient-25)"/>
    <path id="Path_132" data-name="Path 132" d="M447.761,917.942l-1.057-.648a.71.71,0,1,1,.742-1.211h0l.016.01,1.025.63.015.009a.71.71,0,0,1-.742,1.21Z" transform="translate(-425.744 -815.996)" fill="url(#linear-gradient-25)"/>
    <path id="Path_133" data-name="Path 133" d="M430.914,906.364l-1-.739a.713.713,0,0,1,.849-1.146h0l.016.012.965.717.016.011a.712.712,0,0,1-.849,1.144Z" transform="translate(-412.354 -806.684)" fill="url(#linear-gradient-25)"/>
    <path id="Path_134" data-name="Path 134" d="M415.187,893.309l-.924-.828a.716.716,0,0,1,.955-1.067h0l.015.013.893.8.015.013a.715.715,0,0,1-.955,1.065Z" transform="translate(-399.87 -796.198)" fill="url(#linear-gradient-25)"/>
    <path id="Path_135" data-name="Path 135" d="M400.771,878.8l-.84-.917a.719.719,0,0,1,1.06-.971h0l.015.016.809.886.015.016a.718.718,0,0,1-1.06.969Z" transform="translate(-388.444 -784.552)" fill="url(#linear-gradient-25)"/>
    <path id="Path_136" data-name="Path 136" d="M387.883,862.924l-.744-1a.721.721,0,0,1,1.156-.864h0l.013.017.718.962.013.017a.721.721,0,0,1-1.155.862Z" transform="translate(-378.245 -771.831)" fill="url(#linear-gradient-25)"/>
    <path id="Path_137" data-name="Path 137" d="M376.6,845.875l-.645-1.062a.724.724,0,0,1,1.238-.752h0l.011.017.622,1.028.011.017a.723.723,0,0,1-1.237.75Z" transform="translate(-369.331 -758.18)" fill="url(#linear-gradient-25)"/>
    <path id="Path_138" data-name="Path 138" d="M366.975,827.846l-.544-1.116a.727.727,0,0,1,1.307-.637h0l.009.018.525,1.081.009.018a.726.726,0,0,1-1.306.635Z" transform="translate(-361.734 -743.756)" fill="url(#linear-gradient-25)"/>
    <path id="Path_139" data-name="Path 139" d="M359.008,809.025l-.443-1.159a.73.73,0,1,1,1.363-.521h0l.007.018.428,1.124.007.018a.729.729,0,0,1-1.362.519Z" transform="translate(-355.461 -728.708)" fill="url(#linear-gradient-25)"/>
    <path id="Path_140" data-name="Path 140" d="M352.69,789.591l-.343-1.191a.732.732,0,1,1,1.408-.405h0l.005.017.331,1.157.005.018a.732.732,0,0,1-1.407.4Z" transform="translate(-350.502 -713.178)" fill="url(#linear-gradient-25)"/>
    <path id="Path_141" data-name="Path 141" d="M348,769.7l-.245-1.215a.735.735,0,1,1,1.442-.291h0l0,.017.236,1.181,0,.017a.734.734,0,0,1-1.44.289Z" transform="translate(-346.838 -697.291)" fill="url(#linear-gradient-95)"/>
    <path id="Path_142" data-name="Path 142" d="M344.9,749.5l-.149-1.23a.738.738,0,1,1,1.465-.177h0l0,.017.143,1.2,0,.017a.737.737,0,0,1-1.464.176Z" transform="translate(-344.446 -681.163)" fill="url(#linear-gradient-25)"/>
    <path id="Path_143" data-name="Path 143" d="M343.375,729.13l-.054-1.237a.741.741,0,1,1,1.48-.065h0v.017l.051,1.2v.017a.74.74,0,0,1-1.479.064Z" transform="translate(-343.303 -664.899)" fill="url(#linear-gradient-95)"/>
    <path id="Path_144" data-name="Path 144" d="M343.235,708.7l.039-1.238a.744.744,0,0,1,1.487.047h0v.017l-.039,1.2v.017a.743.743,0,0,1-1.485-.048Z" transform="translate(-343.235 -648.594)" fill="url(#linear-gradient-98)"/>
    <path id="Path_145" data-name="Path 145" d="M344.4,688.317l.131-1.233a.746.746,0,0,1,1.485.158h0l0,.017-.129,1.2,0,.017a.746.746,0,0,1-1.483-.159Z" transform="translate(-344.167 -632.334)" fill="url(#linear-gradient-25)"/>
    <path id="Path_146" data-name="Path 146" d="M347.087,668.113l.222-1.218a.749.749,0,0,1,1.474.269h0l0,.017-.218,1.185,0,.017a.748.748,0,0,1-1.472-.27Z" transform="translate(-346.307 -616.224)" fill="url(#linear-gradient-25)"/>
    <path id="Path_147" data-name="Path 147" d="M351.273,648.2l.313-1.2a.752.752,0,0,1,1.455.38h0l0,.017-.306,1.165,0,.017a.751.751,0,0,1-1.453-.381Z" transform="translate(-349.646 -600.348)" fill="url(#linear-gradient-25)"/>
    <path id="Path_148" data-name="Path 148" d="M356.96,628.683l.4-1.172a.755.755,0,1,1,1.427.493h0l-.006.017-.394,1.138-.006.017a.754.754,0,0,1-1.425-.493Z" transform="translate(-354.182 -584.8)" fill="url(#linear-gradient-25)"/>
    <path id="Path_149" data-name="Path 149" d="M364.148,609.7l.5-1.137a.757.757,0,1,1,1.389.606h0l-.007.017-.483,1.1-.007.017a.757.757,0,0,1-1.387-.606Z" transform="translate(-359.916 -569.679)" fill="url(#linear-gradient-25)"/>
    <path id="Path_150" data-name="Path 150" d="M372.841,591.376l.587-1.093a.76.76,0,1,1,1.34.719h0l-.008.016-.571,1.06-.009.016a.759.759,0,0,1-1.338-.719Z" transform="translate(-366.849 -555.102)" fill="url(#linear-gradient-25)"/>
    <path id="Path_151" data-name="Path 151" d="M382.963,573.817l.663-1.045a.763.763,0,0,1,1.289.818h0l-.009.014-.647,1.017-.009.014a.762.762,0,0,1-1.287-.818Z" transform="translate(-374.924 -541.129)" fill="url(#linear-gradient-25)"/>
    <path id="Path_152" data-name="Path 152" d="M394.323,557.044l.735-1a.766.766,0,1,1,1.232.909h0l-.009.013-.717.969-.01.013a.765.765,0,0,1-1.23-.909Z" transform="translate(-383.988 -527.784)" fill="url(#linear-gradient-25)"/>
    <path id="Path_153" data-name="Path 153" d="M406.835,541.117l.8-.943a.769.769,0,1,1,1.172.995h0l-.01.012-.782.919-.01.012a.768.768,0,0,1-1.17-.995Z" transform="translate(-393.972 -515.115)" fill="url(#linear-gradient-25)"/>
    <path id="Path_154" data-name="Path 154" d="M420.4,526.081l.861-.888a.771.771,0,0,1,1.108,1.074h0l-.01.011-.841.865-.01.011a.771.771,0,0,1-1.106-1.073Z" transform="translate(-404.799 -503.159)" fill="url(#linear-gradient-25)"/>
    <path id="Path_155" data-name="Path 155" d="M434.931,511.966l.915-.831a.774.774,0,1,1,1.041,1.146h0l-.011.01-.895.81-.011.01a.773.773,0,0,1-1.039-1.146Z" transform="translate(-416.393 -491.939)" fill="url(#linear-gradient-25)"/>
    <path id="Path_156" data-name="Path 156" d="M450.328,498.8l.964-.773a.777.777,0,1,1,.973,1.212h0l-.011.009-.943.755-.011.009a.776.776,0,0,1-.971-1.211Z" transform="translate(-428.682 -481.472)" fill="url(#linear-gradient-25)"/>
    <path id="Path_157" data-name="Path 157" d="M466.5,486.583l1.007-.715a.78.78,0,0,1,.9,1.272h0l-.011.008-.986.7-.011.008a.779.779,0,0,1-.9-1.271Z" transform="translate(-441.594 -471.769)" fill="url(#linear-gradient-25)"/>
    <path id="Path_158" data-name="Path 158" d="M483.376,475.334l1.046-.656a.782.782,0,0,1,.832,1.326h0l-.011.007-1.025.641-.011.007a.782.782,0,0,1-.83-1.325Z" transform="translate(-455.062 -462.836)" fill="url(#linear-gradient-25)"/>
    <path id="Path_159" data-name="Path 159" d="M500.866,465.054l1.08-.6a.785.785,0,1,1,.76,1.374h0l-.011.006-1.059.584-.011.006a.784.784,0,0,1-.759-1.373Z" transform="translate(-469.024 -454.676)" fill="url(#linear-gradient-25)"/>
    <path id="Path_160" data-name="Path 160" d="M518.9,455.747l1.11-.538a.788.788,0,0,1,.688,1.418h0l-.011.005-1.089.526-.011.005a.787.787,0,0,1-.686-1.417Z" transform="translate(-483.422 -447.293)" fill="url(#linear-gradient-25)"/>
    <path id="Path_161" data-name="Path 161" d="M537.421,447.409l1.138-.48a.791.791,0,0,1,.615,1.457h0l-.011,0-1.116.469-.011,0a.79.79,0,0,1-.613-1.456Z" transform="translate(-498.207 -440.681)" fill="url(#linear-gradient-25)"/>
    <path id="Path_162" data-name="Path 162" d="M556.363,440.05l1.16-.42a.794.794,0,1,1,.541,1.492h0l-.011,0-1.138.411-.012,0a.793.793,0,0,1-.539-1.491Z" transform="translate(-513.331 -434.854)" fill="url(#linear-gradient-25)"/>
    <path id="Path_163" data-name="Path 163" d="M575.663,433.675l1.18-.361a.8.8,0,1,1,.466,1.523h0l-.012,0-1.157.352-.012,0a.8.8,0,0,1-.465-1.522Z" transform="translate(-528.739 -429.811)" fill="url(#linear-gradient-25)"/>
    <path id="Path_164" data-name="Path 164" d="M595.272,428.289l1.2-.3a.8.8,0,0,1,.39,1.55h0l-.012,0-1.173.294-.012,0a.8.8,0,0,1-.388-1.548Z" transform="translate(-544.395 -425.558)" fill="url(#linear-gradient-25)"/>
    <path id="Path_165" data-name="Path 165" d="M615.139,423.9l1.212-.24a.8.8,0,1,1,.312,1.573h0l-.012,0-1.188.234-.012,0a.8.8,0,0,1-.311-1.572Z" transform="translate(-560.256 -422.105)" fill="url(#linear-gradient-25)"/>
    <path id="Path_166" data-name="Path 166" d="M635.225,420.533l1.219-.179a.8.8,0,0,1,.234,1.592h0l-.011,0-1.2.174-.011,0a.8.8,0,0,1-.232-1.591Z" transform="translate(-576.293 -419.463)" fill="url(#linear-gradient-25)"/>
    <path id="Path_167" data-name="Path 167" d="M655.446,418.114l1.226-.124a.807.807,0,1,1,.162,1.607h-.012l-1.205.12h-.011a.807.807,0,0,1-.161-1.605Z" transform="translate(-592.439 -417.576)" fill="url(#linear-gradient-25)"/>
    <path id="Path_168" data-name="Path 168" d="M675.766,416.6l1.23-.07a.81.81,0,0,1,.092,1.618h-.012l-1.209.067h-.01a.809.809,0,0,1-.09-1.616Z" transform="translate(-608.667 -416.408)" fill="url(#linear-gradient-25)"/>
    <path id="Path_169" data-name="Path 169" d="M696.14,415.952l1.232-.018a.813.813,0,0,1,.023,1.626h-.011l-1.212.016h-.01a.812.812,0,0,1-.022-1.624Z" transform="translate(-624.938 -415.935)" fill="url(#linear-gradient-25)"/>
    <path id="Path_170" data-name="Path 170" d="M716.529,416.025l1.231.034a.813.813,0,1,1-.045,1.626h-.008l-1.212-.031h-.01a.814.814,0,0,1,.042-1.627Z" transform="translate(-641.221 -416.007)" fill="url(#linear-gradient-25)"/>
    <path id="Path_171" data-name="Path 171" d="M736.924,416.864l1.229.082a.81.81,0,0,1-.107,1.616h-.008l-1.21-.078h-.009a.811.811,0,1,1,.1-1.618Z" transform="translate(-657.515 -416.677)" fill="url(#linear-gradient-25)"/>
    <path id="Path_172" data-name="Path 172" d="M757.273,418.48l1.224.127a.807.807,0,1,1-.166,1.6h-.007l-1.207-.123h-.009a.808.808,0,0,1,.164-1.607Z" transform="translate(-673.774 -417.968)" fill="url(#linear-gradient-25)"/>
    <path id="Path_173" data-name="Path 173" d="M777.547,420.835l1.218.17a.8.8,0,1,1-.222,1.591h-.007l-1.2-.166h-.008a.8.8,0,0,1,.219-1.594Z" transform="translate(-689.976 -419.849)" fill="url(#linear-gradient-25)"/>
    <path id="Path_174" data-name="Path 174" d="M797.728,423.891l1.211.211a.8.8,0,1,1-.274,1.577h-.007l-1.2-.206h-.008a.8.8,0,0,1,.272-1.579Z" transform="translate(-706.102 -422.291)" fill="url(#linear-gradient-25)"/>
    <path id="Path_175" data-name="Path 175" d="M817.8,427.612l1.2.249a.8.8,0,0,1-.323,1.561h-.006l-1.188-.244h-.007a.8.8,0,0,1,.321-1.563Z" transform="translate(-722.141 -425.263)" fill="url(#linear-gradient-25)"/>
    <path id="Path_176" data-name="Path 176" d="M837.72,431.956l1.2.286a.794.794,0,0,1-.369,1.544h-.006l-1.182-.281-.007,0a.795.795,0,0,1,.367-1.546Z" transform="translate(-738.066 -428.735)" fill="url(#linear-gradient-25)"/>
    <path id="Path_177" data-name="Path 177" d="M857.525,436.9l1.187.32a.791.791,0,1,1-.412,1.527h-.005l-1.175-.315-.006,0a.791.791,0,0,1,.41-1.529Z" transform="translate(-753.896 -432.685)" fill="url(#linear-gradient-25)"/>
    <path id="Path_178" data-name="Path 178" d="M877.18,442.4l1.178.353a.787.787,0,0,1-.452,1.509l0,0-1.167-.347-.006,0a.788.788,0,0,1,.45-1.511Z" transform="translate(-769.608 -437.083)" fill="url(#linear-gradient-25)"/>
    <path id="Path_179" data-name="Path 179" d="M896.683,448.436l1.169.383a.784.784,0,0,1-.489,1.49h0l-1.157-.378-.006,0a.785.785,0,0,1,.487-1.492Z" transform="translate(-785.199 -441.906)" fill="url(#linear-gradient-25)"/>
    <path id="Path_180" data-name="Path 180" d="M916.023,454.971l1.158.413a.781.781,0,0,1-.524,1.471h0l-1.148-.407-.005,0a.782.782,0,1,1,.522-1.474Z" transform="translate(-800.661 -447.129)" fill="url(#linear-gradient-25)"/>
    <path id="Path_181" data-name="Path 181" d="M935.2,461.978l1.146.44a.778.778,0,0,1-.557,1.452h0l-1.137-.434-.005,0a.779.779,0,1,1,.555-1.455Z" transform="translate(-815.989 -452.73)" fill="url(#linear-gradient-25)"/>
    <path id="Path_182" data-name="Path 182" d="M954.194,469.431l1.135.464a.774.774,0,0,1-.587,1.433h0l-1.127-.459,0,0a.775.775,0,0,1,.585-1.436Z" transform="translate(-831.179 -458.688)" fill="url(#linear-gradient-25)"/>
    <path id="Path_183" data-name="Path 183" d="M973.022,477.273l1.125.485a.771.771,0,0,1-.61,1.417h0l-1.119-.48h0a.772.772,0,0,1,.609-1.419Z" transform="translate(-846.236 -464.958)" fill="url(#linear-gradient-25)"/>
    <path id="Path_184" data-name="Path 184" d="M991.708,485.436l1.117.5a.768.768,0,1,1-.628,1.4h0l-1.112-.5h0a.769.769,0,1,1,.627-1.4Z" transform="translate(-861.18 -471.486)" fill="url(#linear-gradient-25)"/>
    <path id="Path_185" data-name="Path 185" d="M1010.278,493.854l1.111.513a.765.765,0,0,1-.642,1.388h0l-1.108-.51h0a.766.766,0,0,1,.641-1.391Z" transform="translate(-876.035 -478.217)" fill="url(#linear-gradient-25)"/>
    <path id="Path_186" data-name="Path 186" d="M1028.763,502.46l1.106.522a.761.761,0,1,1-.65,1.377l-1.1-.519a.762.762,0,0,1,.646-1.381Z" transform="translate(-890.823 -485.101)" fill="url(#linear-gradient-25)"/>
    <path id="Path_187" data-name="Path 187" d="M1047.192,511.191l1.1.527a.758.758,0,0,1-.653,1.369l-1.1-.525a.759.759,0,1,1,.651-1.372Z" transform="translate(-905.568 -492.085)" fill="url(#linear-gradient-25)"/>
    <path id="Path_188" data-name="Path 188" d="M1065.592,519.981l1.1.527a.755.755,0,0,1-.651,1.363l-1.1-.526a.756.756,0,1,1,.651-1.365Z" transform="translate(-920.293 -499.118)" fill="url(#linear-gradient-25)"/>
    <path id="Path_189" data-name="Path 189" d="M1083.991,528.765l1.1.524a.752.752,0,0,1-.644,1.359l-1.105-.523a.753.753,0,1,1,.644-1.361Z" transform="translate(-935.017 -506.146)" fill="url(#linear-gradient-25)"/>
    <path id="Path_190" data-name="Path 190" d="M1102.424,537.488l1.1.519a.744.744,0,0,1-.629,1.349l-1.11-.515a.747.747,0,0,1,.629-1.356Z" transform="translate(-949.773 -513.126)" fill="url(#linear-gradient-25)"/>
    <path id="Path_191" data-name="Path 191" d="M1120.936,546.1l1.108.508h0a.735.735,0,0,1-.609,1.337l-1.115-.505a.737.737,0,1,1,.608-1.344h.006Z" transform="translate(-964.599 -520.018)" fill="url(#linear-gradient-25)"/>
    <path id="Path_192" data-name="Path 192" d="M1139.534,554.507l1.114.493h0a.725.725,0,0,1-.584,1.327l-1.122-.491a.728.728,0,0,1,.583-1.334h.006Z" transform="translate(-979.496 -526.749)" fill="url(#linear-gradient-25)"/>
    <path id="Path_193" data-name="Path 193" d="M1158.246,562.649l1.122.475,0,0a.715.715,0,0,1-.554,1.319l-1.132-.472a.718.718,0,1,1,.553-1.325h0Z" transform="translate(-994.485 -533.267)" fill="url(#linear-gradient-25)"/>
    <path id="Path_194" data-name="Path 194" d="M1177.1,570.454l1.13.451,0,0a.705.705,0,0,1-.52,1.312l-1.141-.449a.708.708,0,0,1,.519-1.318h0Z" transform="translate(-1009.59 -539.516)" fill="url(#linear-gradient-25)"/>
    <path id="Path_195" data-name="Path 195" d="M1196.114,577.846l1.14.424,0,0a.7.7,0,0,1-.482,1.305l-1.152-.422a.7.7,0,1,1,.481-1.312h0Z" transform="translate(-1024.826 -545.435)" fill="url(#linear-gradient-25)"/>
    <path id="Path_196" data-name="Path 196" d="M1215.3,584.764l1.151.393.006,0a.686.686,0,0,1-.44,1.3l-1.164-.391a.689.689,0,0,1,.439-1.306h0Z" transform="translate(-1040.203 -550.975)" fill="url(#linear-gradient-25)"/>
    <path id="Path_197" data-name="Path 197" d="M1234.677,591.143l1.161.358.006,0a.676.676,0,0,1-.4,1.293l-1.176-.356a.679.679,0,0,1,.394-1.3h0Z" transform="translate(-1055.727 -556.085)" fill="url(#linear-gradient-25)"/>
    <path id="Path_198" data-name="Path 198" d="M1254.236,596.915l1.172.319.007,0a.666.666,0,0,1-.346,1.287l-1.188-.317a.669.669,0,0,1,.345-1.293h0Z" transform="translate(-1071.403 -560.708)" fill="url(#linear-gradient-25)"/>
    <path id="Path_199" data-name="Path 199" d="M1273.98,602.007l1.182.275.008,0a.657.657,0,0,1-.294,1.28l-1.2-.273a.66.66,0,0,1,.293-1.286h0Z" transform="translate(-1087.227 -564.787)" fill="url(#linear-gradient-25)"/>
    <path id="Path_200" data-name="Path 200" d="M1293.9,606.34l1.194.227h.008a.647.647,0,0,1-.239,1.272l-1.211-.224a.65.65,0,1,1,.237-1.278h0Z" transform="translate(-1103.195 -568.259)" fill="url(#linear-gradient-25)"/>
    <path id="Path_201" data-name="Path 201" d="M1314,609.838l1.2.173h.009a.637.637,0,0,1-.179,1.262l-1.219-.17a.64.64,0,0,1,.177-1.268H1314Z" transform="translate(-1119.303 -571.061)" fill="url(#linear-gradient-25)"/>
    <path id="Path_202" data-name="Path 202" d="M1334.211,612.412l1.205.115h.01a.628.628,0,0,1-.116,1.25l-1.225-.111a.63.63,0,0,1,.114-1.256h.013Z" transform="translate(-1135.508 -573.124)" fill="url(#linear-gradient-25)"/>
    <path id="Path_203" data-name="Path 203" d="M1354.518,613.987l1.209.053h.01a.618.618,0,0,1-.051,1.234l-1.229-.048a.621.621,0,0,1,.048-1.24h.013Z" transform="translate(-1151.789 -574.386)" fill="url(#linear-gradient-25)"/>
    <path id="Path_204" data-name="Path 204" d="M1374.875,614.438l1.211-.012h.01a.606.606,0,0,1,.017,1.212l-1.232.022a.611.611,0,0,1-.022-1.222h.015Z" transform="translate(-1168.109 -574.738)" fill="url(#linear-gradient-25)"/>
    <path id="Path_205" data-name="Path 205" d="M1395.256,613.509l1.207-.087h.011a.589.589,0,0,1,.089,1.174l-1.229.1a.594.594,0,1,1-.1-1.184h.016Z" transform="translate(-1184.458 -573.934)" fill="url(#linear-gradient-25)"/>
    <path id="Path_206" data-name="Path 206" d="M1415.558,611.281l1.2-.164.011,0a.571.571,0,0,1,.16,1.131l-1.22.178a.576.576,0,1,1-.166-1.141h.016Z" transform="translate(-1200.743 -572.085)" fill="url(#linear-gradient-25)"/>
    <path id="Path_207" data-name="Path 207" d="M1435.69,607.747l1.186-.242.011,0a.554.554,0,0,1,.227,1.084l-1.206.257a.559.559,0,1,1-.233-1.094h0Z" transform="translate(-1216.891 -569.19)" fill="url(#linear-gradient-25)"/>
    <path id="Path_208" data-name="Path 208" d="M1455.561,602.9l1.167-.321.011,0a.537.537,0,0,1,.289,1.034l-1.186.337a.542.542,0,0,1-.3-1.042h0Z" transform="translate(-1232.828 -565.238)" fill="url(#linear-gradient-25)"/>
    <path id="Path_209" data-name="Path 209" d="M1475.075,596.7l1.142-.4.011,0a.519.519,0,0,1,.349.978l-1.159.419a.525.525,0,1,1-.357-.987l0,0Z" transform="translate(-1248.478 -560.21)" fill="url(#linear-gradient-25)"/>
    <path id="Path_210" data-name="Path 210" d="M1494.119,589.142l1.109-.484.01,0a.5.5,0,0,1,.406.919l-1.126.5a.507.507,0,1,1-.414-.926l0,0Z" transform="translate(-1263.751 -554.085)" fill="url(#linear-gradient-25)"/>
    <path id="Path_211" data-name="Path 211" d="M1512.568,580.186l1.069-.568.01-.005a.485.485,0,0,1,.458.854l-1.084.588a.49.49,0,1,1-.467-.862l0,0Z" transform="translate(-1278.547 -546.841)" fill="url(#linear-gradient-25)"/>
    <path id="Path_212" data-name="Path 212" d="M1530.277,569.809l1.019-.653.01-.006a.467.467,0,0,1,.508.785l-1.033.675a.473.473,0,0,1-.517-.792l0,0Z" transform="translate(-1292.75 -538.456)" fill="url(#linear-gradient-25)"/>
    <path id="Path_213" data-name="Path 213" d="M1547.086,558l.958-.738.01-.007a.45.45,0,0,1,.553.711l-.971.761a.455.455,0,0,1-.562-.717l0,0Z" transform="translate(-1306.23 -528.924)" fill="url(#linear-gradient-25)"/>
    <path id="Path_214" data-name="Path 214" d="M1562.812,544.769l.887-.823.009-.008a.433.433,0,0,1,.591.632l-.9.847a.438.438,0,1,1-.6-.637l0,0Z" transform="translate(-1318.842 -518.252)" fill="url(#linear-gradient-25)"/>
    <path id="Path_215" data-name="Path 215" d="M1577.268,530.154l.8-.9.008-.009a.415.415,0,0,1,.623.55l-.813.929a.421.421,0,1,1-.633-.554l0,0Z" transform="translate(-1330.436 -506.475)" fill="url(#linear-gradient-25)"/>
  </g>
  <g id="Group_34" data-name="Group 34" transform="translate(69.386 118.108)">
    <g id="Group_30" data-name="Group 30">
      <path id="Path_216" data-name="Path 216" d="M839.482,946.879a2.38,2.38,0,0,0,.267-.015,2.315,2.315,0,0,0,2.036-2.565L827.252,817.825a2.315,2.315,0,0,0-4.6.529l14.534,126.474A2.315,2.315,0,0,0,839.482,946.879Z" transform="translate(-752.473 -797.739)" fill="#006fad"/>
      <path id="Path_217" data-name="Path 217" d="M498.048,946.879a2.317,2.317,0,0,0,2.257-1.809L528.662,818.6a2.315,2.315,0,0,0-4.519-1.013L495.787,944.057a2.317,2.317,0,0,0,2.261,2.822Z" transform="translate(-490.931 -797.738)" fill="#006fad"/>
      <path id="Path_218" data-name="Path 218" d="M737.567,1203.191a2.316,2.316,0,0,0,2.315-2.315v-62.417a2.315,2.315,0,1,0-4.631,0v62.417A2.316,2.316,0,0,0,737.567,1203.191Z" transform="translate(-682.561 -1054.051)" fill="#006fad"/>
      <path id="Path_219" data-name="Path 219" d="M573.069,731.773,564.929,834.3a4.1,4.1,0,0,1-4.184,3.772L475.725,836a4.1,4.1,0,0,1-3.946-4.74l16.276-102.238a4.1,4.1,0,0,1,4.141-3.452l76.884,1.78A4.1,4.1,0,0,1,573.069,731.773Z" transform="translate(-471.727 -725.572)" fill="#006fad"/>
      <path id="Path_220" data-name="Path 220" d="M579.471,741.986l-71.3-1.651a4.1,4.1,0,0,0-4.141,3.452L488.676,840.26a4.1,4.1,0,0,0,3.946,4.74l78.973,1.926a4.1,4.1,0,0,0,4.184-3.772l7.681-96.749A4.1,4.1,0,0,0,579.471,741.986Z" transform="translate(-485.245 -737.383)" fill="#fff" opacity="0.97"/>
      <path id="Path_221" data-name="Path 221" d="M747.789,797.941l35.934,2a.654.654,0,0,1,.615.709l-.05.577a.654.654,0,0,1-.7.6l-35.884-2.581a.654.654,0,0,1-.6-.708h0A.654.654,0,0,1,747.789,797.941Z" transform="translate(-692.039 -783.47)" fill="#006fad"/>
      <path id="Path_222" data-name="Path 222" d="M745.727,813.566l-.021.246a.654.654,0,0,0,.6.708l35.842,3.076a.654.654,0,0,0,.708-.6l.021-.246a.654.654,0,0,0-.6-.708l-35.842-3.076A.654.654,0,0,0,745.727,813.566Z" transform="translate(-690.923 -795.493)" fill="#006fad"/>
      <path id="Path_223" data-name="Path 223" d="M798.8,834.306l-.009.108a.654.654,0,0,0,.6.708l24.963,2.142a.654.654,0,0,0,.708-.6l.044-.507a.654.654,0,0,0-.606-.709l-25-1.743A.654.654,0,0,0,798.8,834.306Z" transform="translate(-733.395 -812.086)" fill="#006fad"/>
      <g id="Group_29" data-name="Group 29" transform="translate(19.856 13.54)">
        <path id="Path_224" data-name="Path 224" d="M655.809,847.528a.61.61,0,0,1-.425-.172L644.432,836.73l-12.372,7.485a.611.611,0,0,1-.818-.174l-14.507-20.9c-2.647,1.937-14.86,10.875-16.535,12.1a.611.611,0,0,1-.72-.987c1.88-1.373,17.039-12.467,17.039-12.467a.611.611,0,0,1,.863.145l14.538,20.942,12.284-7.432a.61.61,0,0,1,.741.084l10.921,10.6,6.694-4.883a.611.611,0,0,1,.72.987l-7.111,5.186A.607.607,0,0,1,655.809,847.528Z" transform="translate(-593.59 -815.994)" fill="#006fad"/>
        <path id="Path_225" data-name="Path 225" d="M672.459,872.507l-.036,0a.407.407,0,0,1-.37-.442l.076-.86a.407.407,0,0,1,.811.072l-.076.86A.407.407,0,0,1,672.459,872.507Zm.327-3.7-.036,0a.407.407,0,0,1-.37-.441l.107-1.217a.407.407,0,0,1,.811.072l-.107,1.217A.407.407,0,0,1,672.785,868.807Zm.358-4.057-.036,0a.407.407,0,0,1-.37-.442l.107-1.217a.407.407,0,1,1,.811.072l-.107,1.217A.407.407,0,0,1,673.143,864.75Zm.358-4.057-.036,0a.407.407,0,0,1-.37-.441l.107-1.217a.407.407,0,0,1,.811.072l-.107,1.217A.407.407,0,0,1,673.5,860.693Zm.358-4.057-.036,0a.407.407,0,0,1-.37-.441l.107-1.217a.407.407,0,0,1,.811.072l-.107,1.217A.408.408,0,0,1,673.86,856.636Zm.358-4.057-.036,0a.407.407,0,0,1-.37-.442l.107-1.217a.407.407,0,0,1,.811.072l-.107,1.217A.408.408,0,0,1,674.218,852.58Zm.358-4.057-.036,0a.407.407,0,0,1-.37-.441l.107-1.217a.407.407,0,1,1,.811.072l-.107,1.217A.407.407,0,0,1,674.576,848.523Zm.358-4.057-.036,0a.407.407,0,0,1-.37-.442l.107-1.217a.407.407,0,0,1,.811.072l-.108,1.217A.407.407,0,0,1,674.934,844.466Z" transform="translate(-651.853 -832.608)" fill="#006fad"/>
        <path id="Path_226" data-name="Path 226" d="M755.619,945.385l-.036,0a.407.407,0,0,1-.37-.441l.108-1.217a.407.407,0,1,1,.811.072l-.108,1.217A.407.407,0,0,1,755.619,945.385Zm.359-4.057-.036,0a.407.407,0,0,1-.37-.441l.107-1.217a.407.407,0,0,1,.811.072l-.108,1.217A.407.407,0,0,1,755.978,941.328Zm.358-4.057-.036,0a.407.407,0,0,1-.37-.442l.107-1.217a.407.407,0,0,1,.811.072l-.107,1.217A.407.407,0,0,1,756.336,937.271Z" transform="translate(-718.386 -906.857)" fill="#006fad"/>
        <path id="Path_227" data-name="Path 227" d="M817.49,919h-.024a.408.408,0,0,1-.384-.43l.07-1.22a.4.4,0,0,1,.43-.384.407.407,0,0,1,.383.43l-.069,1.22A.408.408,0,0,1,817.49,919Zm.232-4.066H817.7a.408.408,0,0,1-.383-.43l.07-1.22a.413.413,0,0,1,.43-.384.408.408,0,0,1,.384.43l-.07,1.22A.408.408,0,0,1,817.723,914.929Zm.232-4.066h-.024a.408.408,0,0,1-.383-.43l.07-1.22a.407.407,0,1,1,.813.047l-.07,1.22A.407.407,0,0,1,817.955,910.863Zm.232-4.066h-.024a.408.408,0,0,1-.383-.43l.07-1.22a.407.407,0,0,1,.813.047l-.07,1.22A.407.407,0,0,1,818.187,906.8Zm.232-4.066H818.4a.407.407,0,0,1-.383-.43l.069-1.22a.4.4,0,0,1,.43-.383.407.407,0,0,1,.384.43l-.07,1.22A.407.407,0,0,1,818.419,902.731Z" transform="translate(-767.886 -879.221)" fill="#006fad"/>
        <path id="Path_228" data-name="Path 228" d="M876.9,960h-.036a.407.407,0,0,1-.37-.441l.108-1.217a.407.407,0,1,1,.811.072l-.107,1.217A.407.407,0,0,1,876.9,960Zm.358-4.057h-.036a.407.407,0,0,1-.37-.442l.107-1.217a.407.407,0,0,1,.811.072l-.108,1.217A.407.407,0,0,1,877.254,955.946Zm.359-4.057-.036,0a.407.407,0,0,1-.37-.441l.107-1.217a.407.407,0,0,1,.811.072l-.108,1.217A.407.407,0,0,1,877.612,951.889Z" transform="translate(-815.413 -918.552)" fill="#006fad"/>
        <g id="Group_26" data-name="Group 26" transform="translate(2.367)">
          <path id="Path_229" data-name="Path 229" d="M583.483,836.823l-.062,0a.611.611,0,0,1-.547-.669l3.841-38.418a.611.611,0,1,1,1.216.122l-3.841,38.418A.611.611,0,0,1,583.483,836.823Z" transform="translate(-582.872 -796.404)" fill="#006fad"/>
          <g id="Group_25" data-name="Group 25" transform="translate(2.149)">
            <path id="Path_230" data-name="Path 230" d="M593.619,796.893l2.267-1.856,1.855,2.268.175-1.75-1.855-2.267-2.267,1.855Z" transform="translate(-593.619 -793.288)" fill="#006fad"/>
          </g>
        </g>
        <g id="Group_28" data-name="Group 28" transform="translate(0 37.116)">
          <path id="Path_231" data-name="Path 231" d="M640.019,986.174l-.055,0-68.375-6.036a.611.611,0,0,1,.107-1.217l68.375,6.036a.611.611,0,0,1-.053,1.219Z" transform="translate(-571.032 -978.916)" fill="#006fad"/>
          <g id="Group_27" data-name="Group 27" transform="translate(66.38 4.37)">
            <path id="Path_232" data-name="Path 232" d="M903.021,1004.9l2.247-1.881-1.882-2.245,1.752.155,1.881,2.245-2.245,1.881Z" transform="translate(-903.021 -1000.772)" fill="#006fad"/>
          </g>
        </g>
      </g>
    </g>
    <g id="Group_33" data-name="Group 33" transform="translate(7.386 20.718)">
      <path id="Path_233" data-name="Path 233" d="M596.476,1443.284a.735.735,0,0,0-.019-.192c-.959-3.8-5.722-6.173-5.722-6.173l-1.887.148a13.087,13.087,0,0,0-.771,6.325c0,.026.013.05.019.075A44.778,44.778,0,0,0,596.476,1443.284Z" transform="translate(-572.104 -1315.405)" fill="url(#linear-gradient-170)"/>
      <path id="Path_234" data-name="Path 234" d="M588.651,1468.937a.818.818,0,0,0,.6.6,25.875,25.875,0,0,0,7.212-.1.687.687,0,0,0,.57-.684A44.77,44.77,0,0,1,588.651,1468.937Z" transform="translate(-572.659 -1340.876)" fill="#09005d"/>
      <g id="Group_31" data-name="Group 31" transform="translate(43.476)">
        <path id="Path_235" data-name="Path 235" d="M726.124,837.543l12.43-4.512.958,2.007-11.948,4.5A1.641,1.641,0,0,1,726.124,837.543Z" transform="translate(-726.104 -832.263)" fill="url(#linear-gradient-171)"/>
        <path id="Path_236" data-name="Path 236" d="M788.117,831.157c-.366,1.109.958,2.007.958,2.007l2.254-1.6a4.5,4.5,0,0,1-.238-.88Z" transform="translate(-775.666 -830.389)" fill="url(#linear-gradient-172)"/>
        <path id="Path_237" data-name="Path 237" d="M803.248,829.491a4.505,4.505,0,0,0,.238.88l1.666-1.179Z" transform="translate(-787.823 -829.191)" fill="url(#linear-gradient-173)"/>
      </g>
      <path id="Path_238" data-name="Path 238" d="M534.916,1131.979a17.588,17.588,0,0,1-4.089,2.989,33.957,33.957,0,0,0,7.474,6.646l.924,2.075,2.962-3.55A16.081,16.081,0,0,1,534.916,1131.979Z" transform="translate(-526.396 -1071.438)" fill="url(#linear-gradient-174)"/>
      <path id="Path_239" data-name="Path 239" d="M588.616,1423.6l.8,3.847a.629.629,0,0,0,.538.518,5.337,5.337,0,0,0,1.238-.02.791.791,0,0,0,.626-.929l-.556-3.416Z" transform="translate(-572.631 -1304.75)" fill="url(#linear-gradient-175)"/>
      <path id="Path_240" data-name="Path 240" d="M656.552,1467.345a11.275,11.275,0,0,1-3.719-.531c0,.207,0,.418.007.636a.411.411,0,0,0,.393.418l11.443-.074a.523.523,0,0,0,.42-.761C663.595,1467.158,659.774,1467.436,656.552,1467.345Z" transform="translate(-624.007 -1339.323)" fill="#09005d"/>
      <path id="Path_241" data-name="Path 241" d="M665.1,1445.482a.538.538,0,0,0-.045-.086,14.585,14.585,0,0,0-8.671-5.444l-2.44-.077a11.707,11.707,0,0,0-1.107,5.386,11.275,11.275,0,0,0,3.719.531C659.775,1445.883,663.6,1445.606,665.1,1445.482Z" transform="translate(-624.008 -1317.771)" fill="url(#linear-gradient-176)"/>
      <path id="Path_242" data-name="Path 242" d="M656.108,1419.014c.027.182.361,2.946.491,4.018a.531.531,0,0,0,.448.479,5.581,5.581,0,0,0,1.676-.026.722.722,0,0,0,.547-.724v-4.339Z" transform="translate(-626.628 -1300.607)" fill="url(#linear-gradient-177)"/>
      <path id="Path_243" data-name="Path 243" d="M584.283,1169.09a217.252,217.252,0,0,1,5.778,50.509,1.09,1.09,0,0,1-.864,1.062,12.7,12.7,0,0,1-2.728.316,1.011,1.011,0,0,1-.963-.844c-.825-4.839-5.561-32.1-8.259-36.525,0,0-1.775,24.279-1.208,36.876a.6.6,0,0,1-.527.621,10.019,10.019,0,0,1-2.19-.006.8.8,0,0,1-.712-.678c-.588-4.1-3.971-28.473-3.827-46.033.008-.99,2.619-5.3,2.619-5.3Z" transform="translate(-556.76 -1101.128)" fill="#09005d"/>
      <path id="Path_244" data-name="Path 244" d="M555.434,928.224c-2.583,4.808-6.871,9.715-13.848,11.03-6.441,1.214-18.006,2.714-22.655,3.3a5.7,5.7,0,0,0-3.6,1.932c-3.654,4.228-11.671,15.8-2.234,27.469a17.584,17.584,0,0,0,4.089-2.989c-1.044-2.943-1.13-6.7,1.058-11.316a10.769,10.769,0,0,0,.28,1.083,67.122,67.122,0,0,1,3.17,19.337.605.605,0,0,0,.379.565c3.969,1.59,11.609.644,14.174.262a.862.862,0,0,0,.722-.979c-1.259-9.119,5.2-24.12,6.907-27.877a2.488,2.488,0,0,1,1.239-1.24c9.757-4.414,14-11.208,15.718-17.329A9.331,9.331,0,0,0,555.434,928.224Z" transform="translate(-508.668 -908.423)" fill="#3f93c1"/>
      <path id="Path_245" data-name="Path 245" d="M747.963,889.052a29.625,29.625,0,0,0,.463-13.848H746.2a35.988,35.988,0,0,1-3.641,10.6A9.331,9.331,0,0,1,747.963,889.052Z" transform="translate(-695.796 -866.004)" fill="url(#linear-gradient-178)"/>
      <path id="Path_246" data-name="Path 246" d="M754.664,846.174s-3.384-4.383-2.284-6.666,4.869-2.062,4.869-2.062l.529,1.789a2.249,2.249,0,0,1-.053,1.433l-2.082,5.505Z" transform="translate(-703.474 -835.791)" fill="url(#linear-gradient-179)"/>
      <path id="Path_247" data-name="Path 247" d="M591.244,955.133l-.765,7.815s4.4,1.324,7.594-.932l-2.248-7.1Z" transform="translate(-574.121 -929.775)" fill="url(#linear-gradient-180)"/>
      <g id="Group_32" data-name="Group 32" transform="translate(13.539 12.579)">
        <path id="Path_248" data-name="Path 248" d="M596.556,910.146c.106.1,4.466,8.661,4.466,8.661l-4.942,2.385-5.338-7.5S594.784,908.479,596.556,910.146Z" transform="translate(-587.87 -906.275)" fill="url(#linear-gradient-181)"/>
        <path id="Path_249" data-name="Path 249" d="M581.438,899.727a.789.789,0,0,0,.059.692l2.465,4.108a.761.761,0,0,0,.135.168,1.294,1.294,0,0,0,2.073-.014,6.954,6.954,0,0,1,1.947-2.105.788.788,0,0,1,1.063.35,29.426,29.426,0,0,1,1.687,4,.785.785,0,0,1-.457.962,21.864,21.864,0,0,1-4.733,1.381.788.788,0,0,1-.745-.317c-.755-1.034-2.883-3.925-3.609-4.648-.675-.672-1.92-.419-2.481-.258a.792.792,0,0,1-.63-.083,1.736,1.736,0,0,1-.654-2.643.789.789,0,0,0-.244-1.072,1.744,1.744,0,0,1-.668-2.474,2.458,2.458,0,0,1,2.662-1.3.819.819,0,0,0,.859-.478.521.521,0,0,1,.407-.32.765.765,0,0,0,.619-.9,2.019,2.019,0,0,1,1.127-2.313c2.132-1.172,4,.738,4.475,2.35s-1.909,2.752-3.409,2.942C582.285,897.9,581.681,899.1,581.438,899.727Z" transform="translate(-576.38 -892.102)" fill="url(#linear-gradient-182)"/>
        <path id="Path_250" data-name="Path 250" d="M591.337,949.977s-.948-2.774-2.162-2.672-2.169,1.311-.665,2.67C590.382,951.665,591.337,949.977,591.337,949.977Z" transform="translate(-585.468 -936.265)" fill="url(#linear-gradient-183)"/>
      </g>
      <path id="Path_251" data-name="Path 251" d="M550.085,1032.929a24.714,24.714,0,0,1-1.013-9.717l.441.05a24.233,24.233,0,0,0,.989,9.514Z" transform="translate(-540.907 -984.418)" fill="#006fad"/>
      <path id="Path_252" data-name="Path 252" d="M592.013,1220.624a.222.222,0,0,1-.215-.166c-.488-1.882-4.142-3.951-4.179-3.971a.222.222,0,1,1,.217-.387c.157.088,3.856,2.182,4.392,4.247a.223.223,0,0,1-.215.278Z" transform="translate(-571.742 -1138.715)" fill="url(#linear-gradient-184)"/>
    </g>
  </g>
  <g id="Group_38" data-name="Group 38" transform="translate(295.335 7.244)">
    <g id="Group_35" data-name="Group 35" transform="translate(0 39.412)">
      <path id="Path_253" data-name="Path 253" d="M1625.2,402.463a.407.407,0,0,1-.005-.815c.678-.009,1.356-.034,2.015-.075a.407.407,0,0,1,.051.813c-.673.042-1.364.067-2.055.076Zm-2.034-.02h-.013c-.672-.022-1.362-.058-2.051-.109a.407.407,0,0,1-.376-.436.4.4,0,0,1,.436-.376c.678.05,1.357.086,2.017.108a.407.407,0,0,1-.013.814Zm6.1-.236a.407.407,0,0,1-.047-.812c.674-.079,1.343-.177,1.991-.292a.407.407,0,1,1,.142.8c-.663.118-1.349.218-2.038.3A.389.389,0,0,1,1629.264,402.206Zm-10.159-.062-.046,0c-.671-.076-1.355-.165-2.034-.266a.407.407,0,1,1,.12-.806c.67.1,1.345.188,2.006.262a.407.407,0,0,1-.045.812Zm-4.03-.6a.425.425,0,0,1-.074-.007c-.665-.122-1.341-.257-2.01-.4a.407.407,0,1,1,.171-.8c.661.142,1.329.276,1.986.4a.407.407,0,0,1-.073.808Zm18.2-.056a.407.407,0,0,1-.1-.8c.656-.161,1.306-.345,1.931-.546a.407.407,0,0,1,.25.775c-.643.207-1.312.4-1.987.562A.408.408,0,0,1,1633.271,401.491Zm-22.179-.8a.416.416,0,0,1-.1-.012c-.656-.162-1.323-.337-1.982-.521a.407.407,0,1,1,.219-.785c.651.182,1.311.355,1.959.515a.407.407,0,0,1-.1.8Zm26.051-.448a.407.407,0,0,1-.154-.785c.621-.254,1.234-.534,1.82-.831a.407.407,0,1,1,.369.726c-.606.308-1.239.6-1.881.859A.407.407,0,0,1,1637.142,400.241Zm-29.977-.646a.409.409,0,0,1-.121-.018c-.664-.206-1.32-.421-1.949-.639a.407.407,0,0,1,.266-.77c.622.215,1.269.427,1.925.631a.407.407,0,0,1-.121.8Zm33.6-1.2a.407.407,0,0,1-.215-.753c.564-.35,1.119-.73,1.649-1.129a.407.407,0,0,1,.49.651c-.55.413-1.125.807-1.709,1.169A.406.406,0,0,1,1640.766,398.4Zm-37.454-.139a.4.4,0,0,1-.148-.028c-.306-.12-.469-.188-.469-.188l-.925-.391.936-.364.147-.052c.221-.077.682-.238,1.3-.489a.407.407,0,1,1,.307.754c-.282.115-.533.212-.744.29a.408.408,0,0,1-.4.468Zm2.852-1.568a.407.407,0,0,1-.182-.772c.606-.3,1.2-.625,1.76-.963a.407.407,0,0,1,.42.7c-.58.348-1.191.683-1.817.994A.408.408,0,0,1,1606.164,396.691Zm37.849-.737a.407.407,0,0,1-.273-.709c.491-.444.969-.917,1.421-1.4a.407.407,0,1,1,.6.553c-.468.505-.963,1-1.472,1.456A.407.407,0,0,1,1644.013,395.954Zm-34.362-1.367a.407.407,0,0,1-.241-.736,18.605,18.605,0,0,0,1.545-1.259.407.407,0,1,1,.549.6,19.327,19.327,0,0,1-1.613,1.315A.4.4,0,0,1,1609.651,394.587Zm37.124-1.614a.407.407,0,0,1-.321-.657c.4-.519.794-1.067,1.161-1.629a.407.407,0,1,1,.682.445c-.379.58-.783,1.146-1.2,1.683A.407.407,0,0,1,1646.774,392.974Zm-34.13-1.135a.407.407,0,0,1-.311-.67,13,13,0,0,0,1.16-1.6.407.407,0,1,1,.694.427,13.86,13.86,0,0,1-1.233,1.7A.406.406,0,0,1,1612.645,391.838ZM1649,389.573a.407.407,0,0,1-.356-.6c.316-.575.62-1.177.9-1.79a.407.407,0,1,1,.74.341c-.291.631-.6,1.25-.928,1.842A.407.407,0,0,1,1649,389.573Zm-34.247-1.2a.408.408,0,0,1-.379-.557q.042-.106.082-.212c.224-.6.466-1.171.72-1.692a.407.407,0,1,1,.732.358c-.242.5-.474,1.041-.688,1.618-.028.077-.058.153-.088.228A.408.408,0,0,1,1614.753,388.377Zm35.954-2.493a.413.413,0,0,1-.147-.027.407.407,0,0,1-.233-.527c.236-.613.461-1.251.667-1.9a.407.407,0,1,1,.776.248c-.211.66-.441,1.313-.683,1.941A.407.407,0,0,1,1650.708,385.884Zm-34.143-1.138a.407.407,0,0,1-.333-.641,9.243,9.243,0,0,1,1.4-1.6.407.407,0,0,1,.542.607,8.454,8.454,0,0,0-1.274,1.457A.406.406,0,0,1,1616.564,384.746Zm3.036-2.631a.407.407,0,0,1-.163-.781,6.25,6.25,0,0,1,1.215-.386c-.391-.083-.849-.174-1.369-.271a.407.407,0,1,1,.15-.8c.835.156,1.514.3,2.02.417a3.189,3.189,0,0,0,.523.9.407.407,0,0,1-.37.441,5.736,5.736,0,0,0-1.843.449A.4.4,0,0,1,1619.6,382.115Zm32.35-.1a.412.412,0,0,1-.1-.013.407.407,0,0,1-.29-.5q.1-.4.2-.809l-.521-.529a.407.407,0,1,1,.581-.572l.837.85-.052.219q-.125.531-.261,1.047A.407.407,0,0,1,1651.95,382.011Zm-34.6-1.683a.393.393,0,0,1-.068-.006c-.812-.137-1.539-.253-2.012-.328a.407.407,0,1,1,.126-.8l.391.062a.407.407,0,0,1,.11-.553,7.815,7.815,0,0,0,1.36-1.361.407.407,0,1,1,.621.527,8.623,8.623,0,0,1-1.49,1.484c.316.051.664.109,1.029.171a.407.407,0,0,1-.067.809Zm32.753-1.495a.406.406,0,0,1-.29-.122l-1.428-1.451a.407.407,0,1,1,.581-.571l1.428,1.451a.407.407,0,0,1-.29.693Zm-31.217-2.375a.407.407,0,0,1-.3-.677c.484-.546.952-1.035,1.43-1.493a.407.407,0,0,1,.563.588c-.463.443-.915.916-1.384,1.445A.406.406,0,0,1,1618.884,376.458Zm28.36-.528a.406.406,0,0,1-.29-.121l-1.428-1.451a.407.407,0,0,1,.581-.571l1.428,1.451a.407.407,0,0,1-.29.693Zm-25.421-2.28a.407.407,0,0,1-.254-.725c.526-.421,1.089-.831,1.671-1.22a.407.407,0,0,1,.453.677c-.563.376-1.107.773-1.615,1.179A.4.4,0,0,1,1621.823,373.65Zm22.564-.622a.407.407,0,0,1-.29-.122l-1.429-1.451a.455.455,0,0,0-.329-.336,9.329,9.329,0,0,0-1.643-.844.407.407,0,1,1,.316-.751c.189.08,1.854.789,2.013,1.174a.408.408,0,0,1,.022.073.4.4,0,0,1,.2.112l1.429,1.451a.407.407,0,0,1-.29.693Zm-19.187-1.642a.407.407,0,0,1-.2-.762c.4-.225.813-.447,1.233-.66q.3-.153.6-.292a.407.407,0,0,1,.341.74q-.287.133-.576.279c-.409.207-.813.424-1.2.642A.406.406,0,0,1,1625.2,371.386Zm3.7-1.677a.407.407,0,0,1-.125-.8,16.91,16.91,0,0,1,2.021-.516.407.407,0,1,1,.152.8,16.039,16.039,0,0,0-1.922.491A.408.408,0,0,1,1628.9,369.71Zm10.033-.078a.406.406,0,0,1-.114-.016,17.971,17.971,0,0,0-1.94-.447.407.407,0,1,1,.138-.8,18.723,18.723,0,0,1,2.028.467.407.407,0,0,1-.113.8Zm-6.042-.68a.407.407,0,0,1-.026-.814,17.376,17.376,0,0,1,2.084-.008.407.407,0,0,1-.045.813,16.769,16.769,0,0,0-1.986.007Z" transform="translate(-1601.77 -368.102)" fill="#7d97f4"/>
    </g>
    <path id="Path_254" data-name="Path 254" d="M1722.8,396.921s-9.929-4.891-14.306,2.011-7.079,14.951-10.828,15.81c0,0,20.879,5.7,27.55-14.754Z" transform="translate(-1678.494 -350.402)" fill="#aecd54"/>
    <path id="Path_255" data-name="Path 255" d="M1730.289,268.261s-7.45-7.911-11.008-6.961c-3.385.9-21.831,17.185-23.623,18.771a.2.2,0,0,0-.025.276h0a2.784,2.784,0,0,0,2.267,1.109c4.3-.066,17.135-.373,20.987-1.711C1723.536,278.131,1730.289,268.261,1730.289,268.261Z" transform="translate(-1676.831 -243.18)" fill="#aecd54"/>
    <path id="Path_256" data-name="Path 256" d="M1733.9,279.92a.2.2,0,0,1-.132-.359c.1-.088,10.359-8.829,14.92-12.419a2.564,2.564,0,0,1,2.786-.253,38.784,38.784,0,0,1,6.572,4.353.2.2,0,1,1-.263.311,38.379,38.379,0,0,0-6.5-4.3,2.156,2.156,0,0,0-2.344.213c-4.555,3.585-14.8,12.321-14.908,12.409A.2.2,0,0,1,1733.9,279.92Z" transform="translate(-1707.32 -247.477)" fill="#fff"/>
    <path id="Path_257" data-name="Path 257" d="M1858.343,397.226s5.562,9.336,3.671,12.5c-1.8,3.006-22.519,16.274-24.536,17.561a.2.2,0,0,1-.272-.052h0a2.783,2.783,0,0,1-.444-2.484c1.244-4.116,5.063-16.374,7.407-19.71C1847,401.009,1858.343,397.226,1858.343,397.226Z" transform="translate(-1789.68 -351.991)" fill="#aecd54"/>
    <path id="Path_258" data-name="Path 258" d="M1873.03,432.775a.2.2,0,0,1-.113-.373c.113-.075,11.327-7.532,16.025-10.928a2.157,2.157,0,0,0,.848-2.195,38.38,38.38,0,0,0-2.354-7.432.2.2,0,0,1,.371-.168,38.047,38.047,0,0,1,2.38,7.515,2.564,2.564,0,0,1-1.008,2.61c-4.7,3.4-15.926,10.862-16.038,10.937A.2.2,0,0,1,1873.03,432.775Z" transform="translate(-1818.629 -363.458)" fill="#fff"/>
    <path id="Path_259" data-name="Path 259" d="M1837.462,187.054a56.13,56.13,0,0,0-15.491,8.193,159.8,159.8,0,0,0-28.494,27.089,2.131,2.131,0,0,0-.281,2.158,37.565,37.565,0,0,0,10.685,14.394,3.1,3.1,0,0,0,3.184.465,161.352,161.352,0,0,0,33.3-19.723,56.141,56.141,0,0,0,12.063-12.548C1848.652,197.453,1841.65,190.669,1837.462,187.054Z" transform="translate(-1754.783 -183.842)" fill="#3f93c1"/>
    <path id="Path_260" data-name="Path 260" d="M2030.244,194.231a58.249,58.249,0,0,0,9.418-21.819,1.047,1.047,0,0,0-.933-1.237,58.24,58.24,0,0,0-23.452,3.027C2019.464,177.818,2026.467,184.6,2030.244,194.231Z" transform="translate(-1932.598 -170.991)" fill="#aecd54"/>
    <g id="Group_36" data-name="Group 36" transform="translate(63.811 9.031)">
      <ellipse id="Ellipse_5" data-name="Ellipse 5" cx="9.427" cy="10.118" rx="9.427" ry="10.118" transform="translate(0 11.355) rotate(-37.032)" fill="#006fad"/>
      <ellipse id="Ellipse_6" data-name="Ellipse 6" cx="7.511" cy="8.062" rx="7.511" ry="8.062" transform="translate(3.148 11.909) rotate(-37.031)" fill="#005381"/>
      <path id="Path_261" data-name="Path 261" d="M1987.685,260.524a.2.2,0,0,1-.193-.138,6.1,6.1,0,0,0-.906-1.7,5.85,5.85,0,0,0-6.586-2.067.2.2,0,1,1-.139-.383,6.258,6.258,0,0,1,7.05,2.2,6.49,6.49,0,0,1,.966,1.816.2.2,0,0,1-.127.259A.209.209,0,0,1,1987.685,260.524Z" transform="translate(-1967.966 -247.942)" fill="#fff"/>
    </g>
    <g id="Group_37" data-name="Group 37" transform="translate(53.309 25.109)">
      <ellipse id="Ellipse_7" data-name="Ellipse 7" cx="6.228" cy="6.684" rx="6.228" ry="6.684" transform="translate(0 7.501) rotate(-37.031)" fill="#006fad"/>
      <ellipse id="Ellipse_8" data-name="Ellipse 8" cx="4.962" cy="5.326" rx="4.962" ry="5.326" transform="translate(2.08 7.868) rotate(-37.032)" fill="#005381"/>
      <path id="Path_262" data-name="Path 262" d="M1912.222,325.671a.2.2,0,0,1-.193-.138,3.945,3.945,0,0,0-.588-1.105,3.8,3.8,0,0,0-4.272-1.343.2.2,0,0,1-.139-.383,4.205,4.205,0,0,1,4.736,1.48,4.356,4.356,0,0,1,.648,1.219.2.2,0,0,1-.127.259A.2.2,0,0,1,1912.222,325.671Z" transform="translate(-1899.195 -317.29)" fill="#fff"/>
    </g>
  </g>
</svg>
